Fifth/simulation/qsim/Fifth.msim.vcd
$comment
	File created using the following command:
		vcd file Fifth.msim.vcd -direction
$end
$date
	Thu Nov 14 12:15:27 2024
$end
$version
	ModelSim Version 10.1d
$end
$timescale
	1ps
$end
$scope module alu_sm_vlg_vec_tst $end
$var reg 4 ! a [3:0] $end
$var reg 4 " b [3:0] $end
$var reg 1 # clk $end
$var reg 1 $ set $end
$var reg 1 % sno $end
$var wire 1 & f [3] $end
$var wire 1 ' f [2] $end
$var wire 1 ( f [1] $end
$var wire 1 ) priznak [1] $end
$var wire 1 * priznak [0] $end
$var wire 1 + rr [7] $end
$var wire 1 , rr [6] $end
$var wire 1 - rr [5] $end
$var wire 1 . rr [4] $end
$var wire 1 / rr [3] $end
$var wire 1 0 rr [2] $end
$var wire 1 1 rr [1] $end
$var wire 1 2 rr [0] $end
$var wire 1 3 sko $end
$var wire 1 4 y [10] $end
$var wire 1 5 y [9] $end
$var wire 1 6 y [8] $end
$var wire 1 7 y [7] $end
$var wire 1 8 y [6] $end
$var wire 1 9 y [5] $end
$var wire 1 : y [4] $end
$var wire 1 ; y [3] $end
$var wire 1 < y [2] $end
$var wire 1 = y [1] $end
$var wire 1 > sampler $end
$scope module i1 $end
$var wire 1 ? gnd $end
$var wire 1 @ vcc $end
$var wire 1 A unknown $end
$var tri1 1 B devclrn $end
$var tri1 1 C devpor $end
$var tri1 1 D devoe $end
$var wire 1 E sko~output_o $end
$var wire 1 F f[3]~output_o $end
$var wire 1 G f[2]~output_o $end
$var wire 1 H f[1]~output_o $end
$var wire 1 I priznak[1]~output_o $end
$var wire 1 J priznak[0]~output_o $end
$var wire 1 K rr[7]~output_o $end
$var wire 1 L rr[6]~output_o $end
$var wire 1 M rr[5]~output_o $end
$var wire 1 N rr[4]~output_o $end
$var wire 1 O rr[3]~output_o $end
$var wire 1 P rr[2]~output_o $end
$var wire 1 Q rr[1]~output_o $end
$var wire 1 R rr[0]~output_o $end
$var wire 1 S y[10]~output_o $end
$var wire 1 T y[9]~output_o $end
$var wire 1 U y[8]~output_o $end
$var wire 1 V y[7]~output_o $end
$var wire 1 W y[6]~output_o $end
$var wire 1 X y[5]~output_o $end
$var wire 1 Y y[4]~output_o $end
$var wire 1 Z y[3]~output_o $end
$var wire 1 [ y[2]~output_o $end
$var wire 1 \ y[1]~output_o $end
$var wire 1 ] clk~input_o $end
$var wire 1 ^ clk~inputclkctrl_outclk $end
$var wire 1 _ sno~input_o $end
$var wire 1 ` inst1|inst1|Selector3~0_combout $end
$var wire 1 a inst1|inst1|fstate.s0~feeder_combout $end
$var wire 1 b set~input_o $end
$var wire 1 c set~inputclkctrl_outclk $end
$var wire 1 d inst1|inst1|fstate.s0~q $end
$var wire 1 e inst1|inst1|y[8]~0_combout $end
$var wire 1 f inst1|inst1|Selector4~0_combout $end
$var wire 1 g inst1|inst1|fstate.s1~feeder_combout $end
$var wire 1 h inst1|inst1|fstate.s1~q $end
$var wire 1 i inst1|inst1|fstate.s2~feeder_combout $end
$var wire 1 j inst1|inst1|fstate.s2~q $end
$var wire 1 k inst1|i[1]~1_combout $end
$var wire 1 l sno~inputclkctrl_outclk $end
$var wire 1 m inst1|i[0]~0_combout $end
$var wire 1 n inst1|inst1|sko~0_combout $end
$var wire 1 o b[0]~input_o $end
$var wire 1 p inst2|RB~2_combout $end
$var wire 1 q b[1]~input_o $end
$var wire 1 r inst2|RB~1_combout $end
$var wire 1 s b[2]~input_o $end
$var wire 1 t inst2|RB~0_combout $end
$var wire 1 u b[3]~input_o $end
$var wire 1 v a[3]~input_o $end
$var wire 1 w inst2|Mux0~0_combout $end
$var wire 1 x a[2]~input_o $end
$var wire 1 y inst2|Mux5~0_combout $end
$var wire 1 z a[1]~input_o $end
$var wire 1 { inst2|Mux6~0_combout $end
$var wire 1 | a[0]~input_o $end
$var wire 1 } inst2|Mux7~0_combout $end
$var wire 1 ~ inst2|Add0~1 $end
$var wire 1 !! inst2|Add0~3 $end
$var wire 1 "! inst2|Add0~5 $end
$var wire 1 #! inst2|Add0~7 $end
$var wire 1 $! inst2|Add0~8_combout $end
$var wire 1 %! inst2|Add0~6_combout $end
$var wire 1 &! inst2|Add0~4_combout $end
$var wire 1 '! inst2|Add0~2_combout $end
$var wire 1 (! inst2|Add0~0_combout $end
$var wire 1 )! inst2|Add0~9 $end
$var wire 1 *! inst2|Add0~11 $end
$var wire 1 +! inst2|Add0~13 $end
$var wire 1 ,! inst2|Add0~15 $end
$var wire 1 -! inst2|Add0~16_combout $end
$var wire 1 .! inst2|rr[0]~9 $end
$var wire 1 /! inst2|rr[1]~11 $end
$var wire 1 0! inst2|rr[2]~13 $end
$var wire 1 1! inst2|rr[3]~15 $end
$var wire 1 2! inst2|rr[4]~16_combout $end
$var wire 1 3! inst2|rr[3]~14_combout $end
$var wire 1 4! inst2|rr[2]~12_combout $end
$var wire 1 5! inst2|rr[1]~10_combout $end
$var wire 1 6! inst2|rr[0]~8_combout $end
$var wire 1 7! inst2|Add0~14_combout $end
$var wire 1 8! inst2|Add0~12_combout $end
$var wire 1 9! inst2|Add0~10_combout $end
$var wire 1 :! inst2|rr[4]~17 $end
$var wire 1 ;! inst2|rr[5]~19 $end
$var wire 1 <! inst2|rr[6]~21 $end
$var wire 1 =! inst2|rr[7]~22_combout $end
$var wire 1 >! inst2|rr[6]~20_combout $end
$var wire 1 ?! inst2|rr[5]~18_combout $end
$var wire 1 @! inst2|Equal1~0_combout $end
$var wire 1 A! inst2|Equal1~1_combout $end
$var wire 1 B! inst1|inst1|y[5]~1_combout $end
$var wire 1 C! inst1|inst1|y[4]~2_combout $end
$var wire 1 D! inst1|i [1] $end
$var wire 1 E! inst1|i [0] $end
$var wire 1 F! inst2|rr [7] $end
$var wire 1 G! inst2|rr [6] $end
$var wire 1 H! inst2|rr [5] $end
$var wire 1 I! inst2|rr [4] $end
$var wire 1 J! inst2|rr [3] $end
$var wire 1 K! inst2|rr [2] $end
$var wire 1 L! inst2|rr [1] $end
$var wire 1 M! inst2|rr [0] $end
$var wire 1 N! inst2|RB [3] $end
$var wire 1 O! inst2|RB [2] $end
$var wire 1 P! inst2|RB [1] $end
$var wire 1 Q! inst2|RB [0] $end
$var wire 1 R! inst2|RA [3] $end
$var wire 1 S! inst2|RA [2] $end
$var wire 1 T! inst2|RA [1] $end
$var wire 1 U! inst2|RA [0] $end
$upscope $end
$upscope $end
$enddefinitions $end
#0
$dumpvars
b0 !
b0 "
0#
1$
0%
0(
0'
0&
0*
0)
02
01
00
0/
0.
0-
0,
0+
03
0=
0<
0;
0:
09
08
07
06
05
04
x>
0?
1@
xA
1B
1C
1D
0E
0F
0G
0H
0I
0J
0K
0L
0M
0N
0O
0P
0Q
0R
0S
0T
0U
0V
0W
0X
0Y
0Z
0[
0\
0]
0^
0_
0`
0a
1b
1c
0d
0e
0f
0g
0h
0i
0j
0k
0l
0m
1n
0o
0p
0q
0r
0s
0t
0u
0v
0w
0x
0y
0z
0{
0|
0}
0~
1!!
0"!
1#!
0$!
0%!
0&!
0'!
0(!
0)!
1*!
0+!
1,!
0-!
0.!
1/!
00!
11!
02!
03!
04!
05!
06!
07!
08!
09!
0:!
1;!
0<!
0=!
0>!
0?!
0@!
0A!
0B!
0C!
0E!
0D!
0M!
0L!
0K!
0J!
0I!
0H!
0G!
0F!
0Q!
0P!
0O!
0N!
0U!
0T!
0S!
0R!
$end
#5000
1#
1]
1^
0>
#10000
b100 !
b110 !
b111 !
b100 "
b101 "
1%
0$
0#
1o
1s
1|
1z
1x
1_
0b
0]
1l
0c
0^
1>
1p
1t
1e
1`
1a
1\
1[
1U
1V
1=
1<
16
17
1f
1g
1Z
1;
#15000
1#
1]
1^
0>
1U!
1T!
1S!
1Q!
1d
1O!
1h
1}
1{
1y
1(!
1r
0t
0p
1&!
1i
1G
1W
1'
18
0e
1C!
1~
0(!
1'!
1"!
0&!
16!
14!
0\
0[
0U
1Y
0=
0<
06
1:
0f
0!!
0'!
06!
15!
1%!
04!
0g
0Z
0;
1&!
05!
13!
14!
#20000
b11 !
b1 !
b0 !
b1 "
b0 "
0%
0#
0o
0s
0|
0z
0x
0_
0]
0l
0^
1>
#25000
1#
1]
1^
0>
1j
1J!
1K!
0h
1m
1k
0}
0{
0y
0i
1O
1P
0W
1/
10
08
1f
0C!
0~
1(!
1!!
1'!
0&!
1g
1Z
0Y
1;
0:
0'!
16!
0"!
1&!
15!
04!
05!
0%!
14!
03!
#30000
0#
0]
0^
1>
#35000
1#
1]
1^
0>
1P!
0Q!
1E!
1D!
0j
1I!
0K!
0O!
1h
1'!
1t
0(!
0r
0&!
1i
1N
0P
0G
1W
1.
00
0'
18
0f
15!
06!
04!
0g
0Z
0;
#40000
0#
0]
0^
1>
#45000
1#
1]
1^
0>
1j
0I!
0J!
1L!
0h
0m
0i
0N
0O
1Q
0W
0.
0/
11
08
1f
1g
1Z
1;
#50000
0#
0]
0^
1>
#55000
1#
1]
1^
0>
0P!
0E!
0j
1K!
0L!
1O!
1h
0'!
0t
1&!
1}
1{
1y
1i
1P
0Q
1G
1W
10
01
1'
18
0f
1C!
05!
14!
1(!
1'!
1"!
0&!
0g
0Z
1Y
0;
1:
16!
15!
1%!
04!
13!
#60000
0#
0]
0^
1>
#65000
1#
1]
1^
0>
1j
1J!
0K!
1L!
1M!
0h
0n
0}
0{
0y
0i
1O
0P
1Q
1R
0W
1/
00
11
12
08
0C!
0(!
0'!
0"!
1&!
1E
0Y
13
0:
0`
06!
05!
0%!
14!
0a
0V
07
03!
#70000
0#
0]
0^
1>
#75000
1#
1]
1^
0>
0j
0d
1n
0E
03
#80000
b1000 !
b1000 "
b1010 "
1%
0#
1q
1u
1v
1_
0]
1l
0^
1>
1r
1e
1`
1a
1\
1[
1U
1V
1=
1<
16
17
1f
1g
1Z
1;
0D!
0k
#85000
1#
1]
1^
0>
0U!
0T!
0S!
1R!
1P!
1d
0J!
0L!
0M!
1N!
0O!
1h
1}
1{
1y
1'!
1t
0r
17!
18!
19!
1$!
1%!
0&!
1i
0O
0Q
0R
1H
0G
1W
0/
01
02
1(
0'
18
0e
1B!
1(!
0!!
0'!
1&!
15!
1=!
1>!
1?!
12!
13!
04!
0\
0[
0U
1X
0=
0<
06
19
0f
16!
1"!
0&!
05!
14!
0g
0Z
0;
0#!
0%!
04!
1)!
0$!
03!
0*!
09!
02!
1+!
08!
0?!
0,!
07!
0>!
1-!
0=!
1.!
06!
15!
#90000
b0 !
b10 "
b0 "
0%
0#
0q
0u
0v
0_
0]
0l
0^
1>
#95000
1#
1]
1^
0>
1j
1L!
0h
1m
1k
0}
0{
0y
0i
1Q
0W
11
08
1f
0B!
0(!
1!!
1'!
0"!
1&!
1g
1Z
0X
1;
09
0.!
16!
0&!
0/!
05!
1#!
1%!
14!
1/!
15!
0)!
1$!
13!
04!
1*!
19!
12!
0+!
18!
1?!
1,!
17!
1>!
0-!
1=!
06!
#100000
0#
0]
0^
1>
#105000
1#
1]
1^
0>
0P!
1E!
1D!
0j
1K!
0L!
1O!
1h
0'!
0t
1&!
1i
1P
0Q
1G
1W
10
01
1'
18
0f
05!
14!
0g
0Z
0;
#110000
0#
0]
0^
1>
#115000
1#
1]
1^
0>
1j
1I!
1J!
1F!
1G!
1H!
0h
0m
0i
1N
1O
1K
1L
1M
0W
1.
1/
1+
1,
1-
08
1f
1g
1Z
1;
#120000
0#
0]
0^
1>
#125000
1#
1]
1^
0>
0E!
0j
0K!
1M!
0O!
1h
0&!
1}
1{
1y
1i
0P
1R
0G
1W
00
12
0'
18
0f
1B!
04!
1(!
1'!
1&!
0g
0Z
1X
0;
19
16!
15!
14!
#130000
0#
0]
0^
1>
#135000
1#
1]
1^
0>
1j
1K!
1L!
0h
0n
1@!
0}
0{
0y
0i
1P
1Q
0W
10
11
08
0B!
0(!
0'!
0&!
1E
0X
13
09
0`
1A!
06!
05!
04!
0a
0V
1F
07
1&
#140000
0#
0]
0^
1>
#145000
1#
1]
1^
0>
0j
0d
1n
0E
03
#150000
b1 !
b100 "
b1001 !
b1100 "
1%
0#
1s
1u
1|
1v
1_
0]
1l
0^
1>
1t
1e
1`
1a
1\
1[
1U
1V
1=
1<
16
17
1f
1g
1Z
1;
0D!
0k
#155000
1#
1]
1^
0>
1U!
1d
0I!
0J!
0K!
0L!
0M!
0F!
0G!
0H!
1O!
1h
0t
0@!
1&!
1i
0N
0O
0P
0Q
0R
0K
0L
0M
1G
1W
0.
0/
00
01
02
0+
0,
0-
1'
18
0e
0A!
14!
0\
0[
0U
0F
0=
0<
06
0&
0f
0g
0Z
0;
#160000
b1000 !
b1000 "
b0 !
b0 "
0%
0#
0s
0u
0|
0v
0_
0]
0l
0^
1>
#165000
1#
1]
1^
0>
1j
1I!
1J!
1K!
1F!
1G!
1H!
0h
1m
1k
0i
1N
1O
1P
1K
1L
1M
0W
1.
1/
10
1+
1,
1-
08
1f
1g
1Z
1;
#170000
0#
0]
0^
1>
#175000
1#
1]
1^
0>
1E!
1D!
0j
0K!
1M!
0O!
1h
0&!
1{
1y
1i
0P
1R
0G
1W
00
12
0'
18
0f
1B!
04!
1'!
1&!
0g
0Z
1X
0;
19
15!
14!
#180000
0#
0]
0^
1>
#185000
1#
1]
1^
0>
1j
1K!
1L!
0M!
0h
0m
0{
0y
0i
1P
1Q
0R
0W
10
11
02
08
1f
0B!
0'!
0&!
1g
1Z
0X
1;
09
05!
04!
#190000
0#
0]
0^
1>
#195000
1#
1]
1^
0>
0E!
0j
0L!
1M!
1h
1{
1y
1i
0Q
1R
1W
01
12
18
0f
1B!
1'!
1&!
0g
0Z
1X
0;
19
15!
14!
#200000
0#
0]
0^
1>
#205000
1#
1]
1^
0>
1j
1L!
0M!
0h
0n
0{
0y
0i
1Q
0R
0W
11
02
08
0B!
0'!
0&!
1E
0X
13
09
0`
05!
04!
0a
0V
07
#210000
0#
0]
0^
1>
#215000
1#
1]
1^
0>
0j
0d
1n
0E
03
#220000
b100 !
b110 !
b100 "
b1100 "
1%
0#
1s
1u
1z
1x
1_
0]
1l
0^
1>
1t
1e
1`
1a
1\
1[
1U
1V
1=
1<
16
17
1f
1g
1Z
1;
0D!
0k
#225000
1#
1]
1^
0>
0U!
1T!
1S!
0R!
1d
0I!
0J!
0K!
0L!
0F!
0G!
0H!
1O!
1h
0t
1&!
1i
0N
0O
0P
0Q
0K
0L
0M
1G
1W
0.
0/
00
01
0+
0,
0-
1'
18
0e
14!
0\
0[
0U
0=
0<
06
0f
0g
0Z
0;
#230000
b10 !
b0 !
b1000 "
b0 "
0%
0#
0s
0u
0z
0x
0_
0]
0l
0^
1>
#235000
1#
1]
1^
0>
1j
1I!
1J!
1K!
1F!
1G!
1H!
0h
1m
1k
0i
1N
1O
1P
1K
1L
1M
0W
1.
1/
10
1+
1,
1-
08
1f
1g
1Z
1;
#240000
0#
0]
0^
1>
#245000
1#
1]
1^
0>
1E!
1D!
0j
0K!
1M!
0O!
1h
0&!
1}
1w
1i
0P
1R
0G
1W
00
12
0'
18
0f
1B!
04!
1(!
0,!
07!
1+!
08!
0*!
09!
1)!
0$!
0#!
0%!
0g
0Z
1X
0;
19
16!
1-!
0=!
17!
0>!
18!
0?!
19!
02!
1$!
03!
1.!
06!
1=!
1>!
1?!
12!
15!
#250000
0#
0]
0^
1>
#255000
1#
1]
1^
0>
1j
0J!
1L!
0M!
0h
0m
0}
0w
0i
0O
1Q
0R
0W
0/
11
02
08
1f
0B!
0(!
07!
08!
09!
0$!
1#!
1%!
1g
1Z
0X
1;
09
0.!
16!
0=!
0>!
0?!
02!
0)!
1$!
13!
05!
1*!
19!
12!
0+!
18!
1?!
1,!
17!
1>!
0-!
1=!
06!
#260000
0#
0]
0^
1>
#265000
1#
1]
1^
0>
0E!
0j
0I!
1K!
0L!
1M!
1h
1}
1w
1i
0N
1P
0Q
1R
1W
0.
10
01
12
18
0f
1B!
1(!
0,!
07!
1+!
08!
0*!
09!
1)!
0$!
0#!
0%!
0g
0Z
1X
0;
19
16!
1-!
0=!
17!
0>!
18!
0?!
19!
02!
1$!
03!
1.!
06!
1=!
1>!
1?!
12!
15!
#270000
0#
0]
0^
1>
#275000
1#
1]
1^
0>
1j
1I!
0K!
1L!
0M!
0h
0n
0}
0w
0i
1N
0P
1Q
0R
0W
1.
00
11
02
08
0B!
0(!
07!
08!
09!
0$!
1#!
1%!
1E
0X
13
09
0`
0.!
16!
0=!
0>!
0?!
02!
0)!
1$!
13!
0a
0V
07
05!
1*!
19!
12!
0+!
18!
1?!
1,!
17!
1>!
0-!
1=!
06!
#280000
0#
0]
0^
1>
#285000
1#
1]
1^
0>
0j
0d
1n
0E
03
#290000
b1 "
b11 "
b1 !
b1001 !
1%
0#
1|
1v
1o
1q
1_
0]
1l
0^
1>
1p
1r
1e
1`
1a
1\
1[
1U
1V
1=
1<
16
17
1f
1g
1Z
1;
0D!
0k
#295000
1#
1]
1^
0>
1U!
0T!
0S!
1R!
1P!
1Q!
1d
0I!
0L!
0F!
0G!
0H!
0N!
1h
1'!
1t
1(!
0p
07!
08!
09!
0$!
0%!
1i
0N
0Q
0K
0L
0M
0H
1W
0.
01
0+
0,
0-
0(
18
0e
15!
16!
0=!
0>!
0?!
02!
03!
0\
0[
0U
0=
0<
06
0f
0g
0Z
0;
#300000
b10 "
b0 "
b1000 !
b0 !
0%
0#
0|
0v
0o
0q
0_
0]
0l
0^
1>
#305000
1#
1]
1^
0>
1j
1L!
1M!
0h
1m
1k
0i
1Q
1R
0W
11
12
08
1f
1g
1Z
1;
#310000
0#
0]
0^
1>
#315000
1#
1]
1^
0>
0Q!
1E!
1D!
0j
1K!
0M!
1O!
1h
0(!
0r
1&!
1}
1w
1i
1P
0R
1G
1W
10
02
1'
18
0f
1C!
06!
14!
1(!
17!
18!
19!
1$!
1%!
0g
0Z
1Y
0;
1:
16!
1=!
1>!
1?!
12!
13!
#320000
0#
0]
0^
1>
#325000
1#
1]
1^
0>
1j
1I!
1J!
1M!
1F!
1G!
1H!
0h
0m
1@!
0}
0w
0i
1N
1O
1R
1K
1L
1M
0W
1.
1/
12
1+
1,
1-
08
1f
0C!
0(!
07!
08!
09!
0$!
0%!
1g
1Z
0Y
1;
0:
1A!
06!
0=!
0>!
0?!
02!
03!
1F
1&
#330000
0#
0]
0^
1>
#335000
1#
1]
1^
0>
0P!
0E!
0j
1h
0'!
0t
1}
1w
1i
1W
18
0f
1C!
05!
1(!
17!
18!
19!
1$!
1%!
0g
0Z
1Y
0;
1:
16!
1=!
1>!
1?!
12!
13!
#340000
0#
0]
0^
1>
#345000
1#
1]
1^
0>
1j
0L!
0h
0n
0@!
0}
0w
0i
0Q
0W
01
08
0C!
0(!
07!
08!
09!
0$!
0%!
1E
0Y
13
0:
0`
0A!
06!
0=!
0>!
0?!
02!
03!
0a
0V
0F
07
0&
#350000
0#
0]
0^
1>
#355000
1#
1]
1^
0>
0j
0d
1n
0E
03
#360000
0#
0]
0^
1>
#365000
1#
1]
1^
0>
#370000
0#
0]
0^
1>
#375000
1#
1]
1^
0>
#380000
0#
0]
0^
1>
#385000
1#
1]
1^
0>
#390000
0#
0]
0^
1>
#395000
1#
1]
1^
0>
#400000
0#
0]
0^
1>
#405000
1#
1]
1^
0>
#410000
0#
0]
0^
1>
#415000
1#
1]
1^
0>
#420000
0#
0]
0^
1>
#425000
1#
1]
1^
0>
#430000
0#
0]
0^
1>
#435000
1#
1]
1^
0>
#440000
0#
0]
0^
1>
#445000
1#
1]
1^
0>
#450000
0#
0]
0^
1>
#455000
1#
1]
1^
0>
#460000
0#
0]
0^
1>
#465000
1#
1]
1^
0>
#470000
0#
0]
0^
1>
#475000
1#
1]
1^
0>
#480000
0#
0]
0^
1>
#485000
1#
1]
1^
0>
#490000
0#
0]
0^
1>
#495000
1#
1]
1^
0>
#500000
0#
0]
0^
1>
#505000
1#
1]
1^
0>
#510000
0#
0]
0^
1>
#515000
1#
1]
1^
0>
#520000
0#
0]
0^
1>
#525000
1#
1]
1^
0>
#530000
0#
0]
0^
1>
#535000
1#
1]
1^
0>
#540000
0#
0]
0^
1>
#545000
1#
1]
1^
0>
#550000
0#
0]
0^
1>
#555000
1#
1]
1^
0>
#560000
0#
0]
0^
1>
#565000
1#
1]
1^
0>
#570000
0#
0]
0^
1>
#575000
1#
1]
1^
0>
#580000
0#
0]
0^
1>
#585000
1#
1]
1^
0>
#590000
0#
0]
0^
1>
#595000
1#
1]
1^
0>
#600000
0#
0]
0^
1>
#605000
1#
1]
1^
0>
#610000
0#
0]
0^
1>
#615000
1#
1]
1^
0>
#620000
0#
0]
0^
1>
#625000
1#
1]
1^
0>
#630000
0#
0]
0^
1>
#635000
1#
1]
1^
0>
#640000
0#
0]
0^
1>
#645000
1#
1]
1^
0>
#650000
0#
0]
0^
1>
#655000
1#
1]
1^
0>
#660000
0#
0]
0^
1>
#665000
1#
1]
1^
0>
#670000
0#
0]
0^
1>
#675000
1#
1]
1^
0>
#680000
0#
0]
0^
1>
#685000
1#
1]
1^
0>
#690000
0#
0]
0^
1>
#695000
1#
1]
1^
0>
#700000
0#
0]
0^
1>
#705000
1#
1]
1^
0>
#710000
0#
0]
0^
1>
#715000
1#
1]
1^
0>
#720000
0#
0]
0^
1>
#725000
1#
1]
1^
0>
#730000
0#
0]
0^
1>
#735000
1#
1]
1^
0>
#740000
0#
0]
0^
1>
#745000
1#
1]
1^
0>
#750000
0#
0]
0^
1>
#755000
1#
1]
1^
0>
#760000
0#
0]
0^
1>
#765000
1#
1]
1^
0>
#770000
0#
0]
0^
1>
#775000
1#
1]
1^
0>
#780000
0#
0]
0^
1>
#785000
1#
1]
1^
0>
#790000
0#
0]
0^
1>
#795000
1#
1]
1^
0>
#800000
0#
0]
0^
1>
#805000
1#
1]
1^
0>
#810000
0#
0]
0^
1>
#815000
1#
1]
1^
0>
#820000
0#
0]
0^
1>
#825000
1#
1]
1^
0>
#830000
0#
0]
0^
1>
#835000
1#
1]
1^
0>
#840000
0#
0]
0^
1>
#845000
1#
1]
1^
0>
#850000
0#
0]
0^
1>
#855000
1#
1]
1^
0>
#860000
0#
0]
0^
1>
#865000
1#
1]
1^
0>
#870000
0#
0]
0^
1>
#875000
1#
1]
1^
0>
#880000
0#
0]
0^
1>
#885000
1#
1]
1^
0>
#890000
0#
0]
0^
1>
#895000
1#
1]
1^
0>
#900000
0#
0]
0^
1>
#905000
1#
1]
1^
0>
#910000
0#
0]
0^
1>
#915000
1#
1]
1^
0>
#920000
0#
0]
0^
1>
#925000
1#
1]
1^
0>
#930000
0#
0]
0^
1>
#935000
1#
1]
1^
0>
#940000
0#
0]
0^
1>
#945000
1#
1]
1^
0>
#950000
0#
0]
0^
1>
#955000
1#
1]
1^
0>
#960000
0#
0]
0^
1>
#965000
1#
1]
1^
0>
#970000
0#
0]
0^
1>
#975000
1#
1]
1^
0>
#980000
0#
0]
0^
1>
#985000
1#
1]
1^
0>
#990000
0#
0]
0^
1>
#995000
1#
1]
1^
0>
