Sixth/simulation/qsim/Sixth.msim.vcd
$comment
	File created using the following command:
		vcd file Sixth.msim.vcd -direction
$end
$date
	Fri Nov 15 15:05:51 2024
$end
$version
	ModelSim Version 10.1d
$end
$timescale
	1ps
$end
$scope module alu_new_vlg_vec_tst $end
$var reg 4 ! a [3:0] $end
$var reg 4 " b [3:0] $end
$var reg 1 # clk $end
$var reg 1 $ cop $end
$var reg 1 % set $end
$var reg 1 & sno $end
$var wire 1 ' f [3] $end
$var wire 1 ( f [2] $end
$var wire 1 ) f [1] $end
$var wire 1 * incr_i $end
$var wire 1 + next_state_out [2] $end
$var wire 1 , next_state_out [1] $end
$var wire 1 - next_state_out [0] $end
$var wire 1 . priznak [1] $end
$var wire 1 / priznak [0] $end
$var wire 1 0 rr [7] $end
$var wire 1 1 rr [6] $end
$var wire 1 2 rr [5] $end
$var wire 1 3 rr [4] $end
$var wire 1 4 rr [3] $end
$var wire 1 5 rr [2] $end
$var wire 1 6 rr [1] $end
$var wire 1 7 rr [0] $end
$var wire 1 8 s_out [2] $end
$var wire 1 9 s_out [1] $end
$var wire 1 : s_out [0] $end
$var wire 1 ; sko $end
$var wire 1 < y [10] $end
$var wire 1 = y [9] $end
$var wire 1 > y [8] $end
$var wire 1 ? y [7] $end
$var wire 1 @ y [6] $end
$var wire 1 A y [5] $end
$var wire 1 B y [4] $end
$var wire 1 C y [3] $end
$var wire 1 D y [2] $end
$var wire 1 E y [1] $end
$var wire 1 F sampler $end
$scope module i1 $end
$var wire 1 G gnd $end
$var wire 1 H vcc $end
$var wire 1 I unknown $end
$var tri1 1 J devclrn $end
$var tri1 1 K devpor $end
$var tri1 1 L devoe $end
$var wire 1 M sko~output_o $end
$var wire 1 N incr_i~output_o $end
$var wire 1 O f[3]~output_o $end
$var wire 1 P f[2]~output_o $end
$var wire 1 Q f[1]~output_o $end
$var wire 1 R next_state_out[2]~output_o $end
$var wire 1 S next_state_out[1]~output_o $end
$var wire 1 T next_state_out[0]~output_o $end
$var wire 1 U priznak[1]~output_o $end
$var wire 1 V priznak[0]~output_o $end
$var wire 1 W rr[7]~output_o $end
$var wire 1 X rr[6]~output_o $end
$var wire 1 Y rr[5]~output_o $end
$var wire 1 Z rr[4]~output_o $end
$var wire 1 [ rr[3]~output_o $end
$var wire 1 \ rr[2]~output_o $end
$var wire 1 ] rr[1]~output_o $end
$var wire 1 ^ rr[0]~output_o $end
$var wire 1 _ s_out[2]~output_o $end
$var wire 1 ` s_out[1]~output_o $end
$var wire 1 a s_out[0]~output_o $end
$var wire 1 b y[10]~output_o $end
$var wire 1 c y[9]~output_o $end
$var wire 1 d y[8]~output_o $end
$var wire 1 e y[7]~output_o $end
$var wire 1 f y[6]~output_o $end
$var wire 1 g y[5]~output_o $end
$var wire 1 h y[4]~output_o $end
$var wire 1 i y[3]~output_o $end
$var wire 1 j y[2]~output_o $end
$var wire 1 k y[1]~output_o $end
$var wire 1 l clk~input_o $end
$var wire 1 m clk~inputclkctrl_outclk $end
$var wire 1 n sno~input_o $end
$var wire 1 o inst1|Selector0~0_combout $end
$var wire 1 p set~input_o $end
$var wire 1 q set~inputclkctrl_outclk $end
$var wire 1 r inst1|state.s0~q $end
$var wire 1 s cop~input_o $end
$var wire 1 t inst1|incr_i~0_combout $end
$var wire 1 u inst1|Selector1~3_combout $end
$var wire 1 v inst1|state.s1~q $end
$var wire 1 w inst1|state.s2~q $end
$var wire 1 x inst1|i[0]~0_combout $end
$var wire 1 y sno~inputclkctrl_outclk $end
$var wire 1 z inst1|i[1]~1_combout $end
$var wire 1 { b[2]~input_o $end
$var wire 1 | b[0]~input_o $end
$var wire 1 } inst|RB~2_combout $end
$var wire 1 ~ b[1]~input_o $end
$var wire 1 !! inst|RB~1_combout $end
$var wire 1 "! inst|RB~0_combout $end
$var wire 1 #! b[3]~input_o $end
$var wire 1 $! inst1|Selector1~2_combout $end
$var wire 1 %! inst1|y[5]~1_combout $end
$var wire 1 &! a[2]~input_o $end
$var wire 1 '! inst1|y[4]~2_combout $end
$var wire 1 (! inst|Mux5~0_combout $end
$var wire 1 )! inst|q[2]~0_combout $end
$var wire 1 *! a[1]~input_o $end
$var wire 1 +! inst|Mux6~0_combout $end
$var wire 1 ,! a[0]~input_o $end
$var wire 1 -! inst|Mux7~0_combout $end
$var wire 1 .! inst|Add0~0_combout $end
$var wire 1 /! a[3]~input_o $end
$var wire 1 0! inst|Mux0~0_combout $end
$var wire 1 1! inst|Add0~5 $end
$var wire 1 2! inst|Add0~6_combout $end
$var wire 1 3! inst|rr[0]~11 $end
$var wire 1 4! inst|rr[1]~13 $end
$var wire 1 5! inst|rr[2]~15 $end
$var wire 1 6! inst|rr[3]~16_combout $end
$var wire 1 7! inst1|Selector4~0_combout $end
$var wire 1 8! inst|Equal1~0_combout $end
$var wire 1 9! inst1|next_state.s3~0_combout $end
$var wire 1 :! inst1|Selector3~1_combout $end
$var wire 1 ;! inst1|Selector5~0_combout $end
$var wire 1 <! inst|rr[5]~26_combout $end
$var wire 1 =! inst|q[3]~7_combout $end
$var wire 1 >! inst|Add0~7 $end
$var wire 1 ?! inst|Add0~8_combout $end
$var wire 1 @! inst|rr[3]~17 $end
$var wire 1 A! inst|rr[4]~18_combout $end
$var wire 1 B! inst|q[4]~6_combout $end
$var wire 1 C! inst|Add0~9 $end
$var wire 1 D! inst|Add0~10_combout $end
$var wire 1 E! inst|rr[4]~19 $end
$var wire 1 F! inst|rr[5]~20_combout $end
$var wire 1 G! inst|q[5]~5_combout $end
$var wire 1 H! inst|Add0~11 $end
$var wire 1 I! inst|Add0~12_combout $end
$var wire 1 J! inst|rr[5]~21 $end
$var wire 1 K! inst|rr[6]~22_combout $end
$var wire 1 L! inst|q[6]~4_combout $end
$var wire 1 M! inst|Add0~13 $end
$var wire 1 N! inst|Add0~14_combout $end
$var wire 1 O! inst|rr[6]~23 $end
$var wire 1 P! inst|rr[7]~24_combout $end
$var wire 1 Q! inst|q[7]~3_combout $end
$var wire 1 R! inst|Add0~15 $end
$var wire 1 S! inst|Add0~16_combout $end
$var wire 1 T! inst|rr[0]~10_combout $end
$var wire 1 U! inst|q[0]~2_combout $end
$var wire 1 V! inst|Add0~1 $end
$var wire 1 W! inst|Add0~2_combout $end
$var wire 1 X! inst|rr[1]~12_combout $end
$var wire 1 Y! inst|q[1]~1_combout $end
$var wire 1 Z! inst|Add0~3 $end
$var wire 1 [! inst|Add0~4_combout $end
$var wire 1 \! inst|rr[2]~14_combout $end
$var wire 1 ]! inst|Equal1~1_combout $end
$var wire 1 ^! inst1|state.s3~feeder_combout $end
$var wire 1 _! inst1|state.s3~q $end
$var wire 1 `! inst1|Selector3~0_combout $end
$var wire 1 a! inst1|state.s4~q $end
$var wire 1 b! inst1|sko~0_combout $end
$var wire 1 c! inst1|incr_i~combout $end
$var wire 1 d! inst1|next_state_out[2]~0_combout $end
$var wire 1 e! inst1|next_state_out[1]~1_combout $end
$var wire 1 f! inst1|next_state_out[0]~2_combout $end
$var wire 1 g! inst|Equal0~0_combout $end
$var wire 1 h! inst|pr[1]~0_combout $end
$var wire 1 i! inst|Equal0~1_combout $end
$var wire 1 j! inst1|s_out[2]~0_combout $end
$var wire 1 k! inst1|s_out[1]~1_combout $end
$var wire 1 l! inst1|s_out[0]~2_combout $end
$var wire 1 m! inst1|y[9]~0_combout $end
$var wire 1 n! inst|priznak [1] $end
$var wire 1 o! inst|priznak [0] $end
$var wire 1 p! inst1|i [1] $end
$var wire 1 q! inst1|i [0] $end
$var wire 1 r! inst|RB [3] $end
$var wire 1 s! inst|RB [2] $end
$var wire 1 t! inst|RB [1] $end
$var wire 1 u! inst|RB [0] $end
$var wire 1 v! inst|rr [7] $end
$var wire 1 w! inst|rr [6] $end
$var wire 1 x! inst|rr [5] $end
$var wire 1 y! inst|rr [4] $end
$var wire 1 z! inst|rr [3] $end
$var wire 1 {! inst|rr [2] $end
$var wire 1 |! inst|rr [1] $end
$var wire 1 }! inst|rr [0] $end
$var wire 1 ~! inst|RA [3] $end
$var wire 1 !" inst|RA [2] $end
$var wire 1 "" inst|RA [1] $end
$var wire 1 #" inst|RA [0] $end
$upscope $end
$upscope $end
$enddefinitions $end
#0
$dumpvars
b0 !
b0 "
0#
1$
1%
0&
0)
0(
0'
0*
0-
0,
0+
0/
0.
07
06
05
04
03
02
01
00
0:
09
08
0;
0E
0D
0C
0B
0A
0@
0?
0>
0=
0<
xF
0G
1H
xI
1J
1K
1L
0M
0N
0O
0P
0Q
0R
0S
0T
0U
0V
0W
0X
0Y
0Z
0[
0\
0]
0^
0_
0`
0a
0b
0c
0d
0e
0f
0g
0h
0i
0j
0k
0l
0m
0n
0o
1p
1q
0r
1s
0t
0u
0v
0w
0x
0y
0z
0{
0|
0}
0~
0!!
0"!
0#!
0$!
0%!
0&!
0'!
0(!
0)!
0*!
0+!
0,!
0-!
0.!
0/!
00!
01!
02!
03!
14!
05!
06!
07!
08!
09!
0:!
0;!
0<!
0=!
1>!
0?!
1@!
0A!
0B!
0C!
0D!
0E!
0F!
0G!
1H!
0I!
1J!
0K!
0L!
0M!
0N!
0O!
0P!
0Q!
1R!
0S!
0T!
0U!
0V!
0W!
0X!
0Y!
1Z!
0[!
0\!
0]!
0^!
0_!
0`!
0a!
1b!
0c!
0d!
0e!
0f!
1g!
0h!
0i!
1j!
0k!
0l!
0m!
0o!
0n!
0q!
0p!
0u!
0t!
0s!
0r!
0}!
0|!
0{!
0z!
0y!
0x!
0w!
0v!
0#"
0""
0!"
0~!
$end
#5000
1#
1l
1m
0F
#10000
b100 !
b110 !
b111 !
b100 "
b101 "
1&
0%
0#
1|
1{
1,!
1*!
1&!
1n
0p
0l
1y
0q
0m
1F
1}
1"!
1<!
1o
1$!
1u
1k
1j
1i
1E
1D
1C
1f!
1;!
17!
1T
1e
1d
1-
1?
1>
#15000
1#
1l
1m
0F
1#"
1""
1!"
1u!
1r
1s!
1v
1!!
0"!
0}
1P
1f
1(
1@
1l!
0$!
0u
1'!
1m!
1-!
1+!
1(!
1a
0k
0j
0i
1h
1c
1:
0E
0D
0C
1B
1=
07!
0f!
1e!
1.!
1W!
1[!
0d
0T
1S
0>
0-
1,
1T!
1X!
1\!
#20000
b11 !
b1 !
b0 !
b1 "
b0 "
0&
0#
0|
0{
0,!
0*!
0&!
0n
0l
0y
0m
1F
#25000
1#
1l
1m
0F
1w
1{!
1|!
1}!
0v
1z
1x
1t
1h!
1)!
0g!
1U!
1\
1]
1^
0f
15
16
17
0@
0l!
1k!
1c!
0m!
0e!
1d!
0;!
0'!
11!
0[!
1V!
0.!
0<!
0-!
0+!
0(!
0a
1`
1N
0c
0S
1R
0e
0h
0:
19
1*
0=
0,
1+
0?
0B
1;!
1u
12!
0\!
0T!
0V!
1.!
01!
1[!
1<!
1e
1i
1?
1C
1f!
0d!
16!
0W!
1T!
02!
1\!
1T
0R
1-
0+
0X!
06!
#30000
0#
0l
0m
1F
#35000
1#
1l
1m
0F
1t!
0u!
1p!
1q!
0w
0}!
1z!
0s!
1v
1Y!
1"!
0U!
0!!
0t
1i!
1=!
0^
1[
0P
1f
07
14
0(
1@
0c!
1l!
0k!
1m!
1W!
0.!
12!
0N
1a
0`
1c
0*
1:
09
1=
0u
1X!
0T!
16!
0i
0C
0f!
1e!
0T
1S
0-
1,
#40000
0#
0l
0m
1F
#45000
1#
1l
1m
0F
1w
0v
0x
1t
0=!
0)!
0f
0@
0l!
1k!
1c!
0m!
0e!
1d!
0;!
02!
0[!
0<!
0a
1`
1N
0c
0S
1R
0e
0:
19
1*
0=
0,
1+
0?
1;!
1u
06!
0\!
1<!
1e
1i
1?
1C
1f!
0d!
1T
0R
1-
0+
#50000
0#
0l
0m
1F
#55000
1#
1l
1m
0F
0t!
0q!
0w
0|!
1y!
1s!
1v
0Y!
0"!
0t
1g!
0h!
1B!
1)!
1=!
0]
1Z
1P
1f
06
13
1(
1@
0c!
1l!
0k!
1'!
1m!
0W!
1?!
1[!
12!
1-!
1+!
1(!
0N
1a
0`
1h
1c
0*
1:
09
1B
1=
0u
0X!
1A!
1\!
16!
1.!
1W!
11!
0[!
0i
0C
0f!
1e!
1T!
1X!
0>!
02!
0\!
0T
1S
0-
1,
1C!
0?!
06!
1D!
0A!
1F!
#60000
0#
0l
0m
1F
#65000
1#
1l
1m
0F
1w
0{!
1|!
1}!
1x!
0y!
0z!
0v
0b!
0g!
0i!
0B!
0=!
0\
1]
1^
1Y
0Z
0[
0f
05
16
17
12
03
04
0@
0l!
1k!
0m!
0e!
1d!
0;!
0'!
0o
1h!
0C!
1?!
1>!
12!
0<!
0-!
0+!
0(!
1M
0a
1`
0c
0S
1R
0e
0h
1;
0:
19
0=
0,
1+
0?
0B
0D!
1A!
0?!
16!
0.!
0W!
01!
1[!
0d!
0F!
0A!
0T!
0X!
02!
1\!
0R
0+
06!
#70000
0#
0l
0m
1F
#75000
1#
1l
1m
0F
0w
0r
1b!
0k!
0M
0`
0;
09
#80000
b1000 !
b1000 "
b1010 "
1&
0#
1~
1#!
1/!
1n
0l
1y
0m
1F
1!!
1<!
1o
1$!
1u
1k
1j
1i
1E
1D
1C
1f!
1;!
17!
1T
1e
1d
1-
1?
1>
0p!
0z
#85000
1#
1l
1m
0F
1~!
0#"
0""
0!"
1t!
1r
0|!
0}!
0x!
1r!
0s!
1v
1"!
0!!
1g!
0)!
0]
0^
0Y
1Q
0P
1f
06
07
02
1)
0(
1@
1l!
0$!
0u
1%!
1m!
0h!
0[!
1-!
1+!
1(!
1a
0k
0j
0i
1g
1c
1:
0E
0D
0C
1A
1=
07!
0f!
1e!
0\!
1.!
1W!
1[!
0d
0T
1S
0>
0-
1,
1T!
1X!
1\!
#90000
b0 !
b10 "
b0 "
0&
0#
0~
0#!
0/!
0n
0l
0y
0m
1F
#95000
1#
1l
1m
0F
1w
1{!
1|!
1}!
0v
1z
1x
1t
1h!
0g!
1Y!
1Q!
1L!
1G!
1B!
1=!
1\
1]
1^
0f
15
16
17
0@
0l!
1k!
1c!
0m!
0e!
1d!
0;!
0%!
0Z!
0W!
1N!
1I!
1D!
1?!
12!
0<!
0-!
0+!
0(!
0a
1`
1N
0c
0S
1R
0e
0g
0:
19
1*
0=
0,
1+
0?
0A
1;!
1u
0X!
1P!
1K!
1F!
1A!
16!
0.!
1Z!
1W!
1<!
1e
1i
1?
1C
1f!
0d!
0T!
0[!
1X!
1T
0R
1-
0+
0\!
#100000
0#
0l
0m
1F
#105000
1#
1l
1m
0F
0t!
1p!
1q!
0w
0}!
1z!
1s!
1v
0"!
0t
1i!
1)!
0Q!
0L!
0G!
0B!
0^
1[
1P
1f
07
14
1(
1@
0c!
1l!
0k!
1m!
1[!
0N!
0I!
0D!
0?!
0N
1a
0`
1c
0*
1:
09
1=
0u
1\!
0P!
0K!
0F!
0A!
0i
0C
0f!
1e!
0T
1S
0-
1,
#110000
0#
0l
0m
1F
#115000
1#
1l
1m
0F
1w
0v
0x
1t
0Y!
1Q!
1L!
1G!
1B!
0f
0@
0l!
1k!
1c!
0m!
0e!
1d!
0;!
0W!
1N!
1I!
1D!
1?!
0<!
0a
1`
1N
0c
0S
1R
0e
0:
19
1*
0=
0,
1+
0?
1;!
1u
0X!
1P!
1K!
1F!
1A!
1<!
1e
1i
1?
1C
1f!
0d!
1T
0R
1-
0+
#120000
0#
0l
0m
1F
#125000
1#
1l
1m
0F
0q!
0w
0|!
1y!
0s!
1v
0t
1g!
0h!
0Q!
0L!
0G!
0]
1Z
0P
1f
06
13
0(
1@
0c!
1l!
0k!
1%!
1m!
0N!
0I!
0D!
1-!
1+!
1(!
0N
1a
0`
1g
1c
0*
1:
09
1A
1=
0u
0P!
0K!
0F!
1.!
1W!
11!
0[!
0i
0C
0f!
1e!
1T!
1X!
0>!
02!
0\!
0T
1S
0-
1,
1C!
0?!
06!
1D!
0A!
1F!
#130000
0#
0l
0m
1F
#135000
1#
1l
1m
0F
1w
0{!
1|!
1}!
1x!
0y!
0z!
0v
0b!
0)!
0g!
1G!
0i!
1Q!
1L!
0\
1]
1^
1Y
0Z
0[
0f
05
16
17
12
03
04
0@
0l!
1k!
0m!
0e!
1d!
0;!
0%!
0o
01!
1[!
1h!
0H!
0D!
1N!
1I!
0<!
0-!
0+!
0(!
1M
0a
1`
0c
0S
1R
0e
0g
1;
0:
19
0=
0,
1+
0?
0A
1>!
12!
1\!
1M!
0I!
0F!
1P!
1K!
0.!
0W!
0[!
0d!
0C!
1?!
16!
0R!
0N!
0K!
0T!
0X!
0\!
0R
0+
1H!
1D!
1A!
1S!
0P!
0M!
1I!
1F!
1T!
1R!
1N!
1K!
0S!
1P!
0T!
#140000
0#
0l
0m
1F
#145000
1#
1l
1m
0F
0w
0r
1b!
0k!
0M
0`
0;
09
#150000
b1 !
b100 "
b1001 !
b1100 "
1&
0#
1{
1#!
1,!
1/!
1n
0l
1y
0m
1F
1"!
1<!
1o
1$!
1u
1k
1j
1i
1E
1D
1C
1f!
1;!
17!
1T
1e
1d
1-
1?
1>
0p!
0z
#155000
1#
1l
1m
0F
1#"
1r
0|!
0}!
0x!
1s!
1v
0"!
1g!
0G!
0Q!
0L!
0B!
0=!
0]
0^
0Y
1P
1f
06
07
02
1(
1@
1l!
0$!
0u
1m!
0h!
0D!
0N!
0I!
0?!
02!
1a
0k
0j
0i
1c
1:
0E
0D
0C
1=
07!
0f!
1e!
0F!
0P!
0K!
0A!
06!
0d
0T
1S
0>
0-
1,
#160000
b1000 !
b1000 "
b0 !
b0 "
0&
0#
0{
0#!
0,!
0/!
0n
0l
0y
0m
1F
#165000
1#
1l
1m
0F
1w
0v
1z
1x
1t
1Q!
1L!
1G!
1B!
1=!
1)!
0f
0@
0l!
1k!
1c!
0m!
0e!
1d!
0;!
1N!
1I!
1D!
1?!
12!
1[!
0<!
0a
1`
1N
0c
0S
1R
0e
0:
19
1*
0=
0,
1+
0?
1;!
1u
1P!
1K!
1F!
1A!
16!
1\!
1<!
1e
1i
1?
1C
1f!
0d!
1T
0R
1-
0+
#170000
0#
0l
0m
1F
#175000
1#
1l
1m
0F
1p!
1q!
0w
0s!
1v
0t
0)!
0Q!
0L!
0G!
0B!
0=!
0P
1f
0(
1@
0c!
1l!
0k!
1%!
1m!
0[!
0N!
0I!
0D!
0?!
02!
1+!
1(!
0N
1a
0`
1g
1c
0*
1:
09
1A
1=
0u
0\!
0P!
0K!
0F!
0A!
06!
1W!
1[!
0i
0C
0f!
1e!
1X!
1\!
0T
1S
0-
1,
#180000
0#
0l
0m
1F
#185000
1#
1l
1m
0F
1w
1{!
1|!
0v
0x
1t
1h!
0g!
1Q!
1L!
1G!
1B!
1=!
1\
1]
0f
15
16
0@
0l!
1k!
1c!
0m!
0e!
1d!
0;!
0%!
1N!
1I!
1D!
1?!
12!
0<!
0+!
0(!
0a
1`
1N
0c
0S
1R
0e
0g
0:
19
1*
0=
0,
1+
0?
0A
1;!
1u
1P!
1K!
1F!
1A!
16!
0W!
0[!
1<!
1e
1i
1?
1C
1f!
0d!
0X!
0\!
1T
0R
1-
0+
#190000
0#
0l
0m
1F
#195000
1#
1l
1m
0F
0q!
0w
0|!
1z!
1v
0t
1g!
1i!
0Q!
0L!
0G!
0B!
1)!
0]
1[
1f
06
14
1@
0c!
1l!
0k!
1m!
1%!
0N!
0I!
0D!
0?!
1[!
1+!
1(!
0N
1a
0`
1c
1g
0*
1:
09
1=
1A
0u
0P!
0K!
0F!
0A!
1\!
1W!
11!
0[!
0i
0C
0f!
1e!
1X!
0>!
02!
0\!
0T
1S
0-
1,
1?!
06!
1A!
#200000
0#
0l
0m
1F
#205000
1#
1l
1m
0F
1w
0{!
1|!
1y!
0z!
0v
0b!
0)!
0g!
1B!
1Q!
1L!
1G!
0\
1]
1Z
0[
0f
05
16
13
04
0@
0l!
1k!
0m!
0e!
1d!
0;!
0%!
0o
01!
1[!
1C!
0?!
1N!
1I!
1D!
0<!
0+!
0(!
1M
0a
1`
0c
0S
1R
0e
0g
1;
0:
19
0=
0,
1+
0?
0A
1>!
12!
1\!
0H!
0D!
0A!
1P!
1K!
1F!
0W!
0[!
0d!
0C!
1?!
16!
1M!
0I!
0F!
0X!
0\!
0R
0+
1H!
1D!
1A!
0R!
0N!
0K!
0M!
1I!
1F!
1S!
0P!
1R!
1N!
1K!
1T!
0S!
1P!
0T!
#210000
0#
0l
0m
1F
#215000
1#
1l
1m
0F
0w
0r
1b!
0k!
0M
0`
0;
09
#220000
b100 !
b110 !
b100 "
b1100 "
1&
0#
1{
1#!
1*!
1&!
1n
0l
1y
0m
1F
1"!
1<!
1o
1$!
1u
1k
1j
1i
1E
1D
1C
1f!
1;!
17!
1T
1e
1d
1-
1?
1>
0p!
0z
#225000
1#
1l
1m
0F
0~!
0#"
1""
1!"
1r
0|!
0y!
1s!
1v
0"!
1g!
0i!
0B!
0Q!
0L!
0G!
0=!
0]
0Z
1P
1f
06
03
1(
1@
1l!
0$!
0u
1m!
0h!
0?!
0N!
0I!
0D!
02!
1a
0k
0j
0i
1c
1:
0E
0D
0C
1=
07!
0f!
1e!
0A!
0P!
0K!
0F!
06!
0d
0T
1S
0>
0-
1,
#230000
b10 !
b0 !
b1000 "
b0 "
0&
0#
0{
0#!
0*!
0&!
0n
0l
0y
0m
1F
#235000
1#
1l
1m
0F
1w
0v
1z
1x
1t
1Q!
1L!
1G!
1B!
1=!
1)!
0f
0@
0l!
1k!
1c!
0m!
0e!
1d!
0;!
1N!
1I!
1D!
1?!
12!
1[!
0<!
0a
1`
1N
0c
0S
1R
0e
0:
19
1*
0=
0,
1+
0?
1;!
1u
1P!
1K!
1F!
1A!
16!
1\!
1<!
1e
1i
1?
1C
1f!
0d!
1T
0R
1-
0+
#240000
0#
0l
0m
1F
#245000
1#
1l
1m
0F
1p!
1q!
0w
0s!
1v
0t
0)!
0Q!
0L!
0G!
0B!
0=!
0P
1f
0(
1@
0c!
1l!
0k!
1%!
1m!
0[!
0N!
0I!
0D!
0?!
02!
10!
1-!
0N
1a
0`
1g
1c
0*
1:
09
1A
1=
0u
0\!
0P!
0K!
0F!
0A!
06!
1N!
1I!
1D!
1?!
12!
1.!
0i
0C
0f!
1e!
1P!
1K!
1F!
1A!
16!
1T!
0T
1S
0-
1,
#250000
0#
0l
0m
1F
#255000
1#
1l
1m
0F
1w
1}!
1v!
1w!
1x!
1y!
1z!
0v
0x
1t
0g!
1Q!
1L!
1G!
1i!
1B!
1=!
1^
1W
1X
1Y
1Z
1[
0f
17
10
11
12
13
14
0@
0l!
1k!
1c!
0m!
0e!
1d!
0;!
0%!
0R!
0N!
1M!
0I!
0H!
0D!
1C!
0?!
0>!
02!
0<!
00!
0-!
0a
1`
1N
0c
0S
1R
0e
0g
0:
19
1*
0=
0,
1+
0?
0A
1;!
1u
1S!
0P!
0K!
0F!
0A!
06!
1>!
12!
0.!
1<!
1e
1i
1?
1C
1f!
0d!
0C!
1?!
16!
1T
0R
1-
0+
1H!
1D!
1A!
0M!
1I!
1F!
1R!
1N!
1K!
0S!
1P!
0T!
#260000
0#
0l
0m
1F
#265000
1#
1l
1m
0F
0q!
0w
1|!
0z!
1v
0t
1Y!
1h!
0=!
1U!
1]
0[
1f
16
04
1@
0c!
1l!
0k!
1m!
1%!
1W!
02!
1.!
10!
1-!
0N
1a
0`
1c
1g
0*
1:
09
1=
1A
0u
1X!
06!
1T!
0R!
0N!
1M!
0I!
0H!
0D!
1C!
0?!
12!
1V!
0.!
0i
0C
0f!
1e!
1S!
0P!
1N!
0K!
1I!
0F!
1D!
0A!
16!
0Z!
0W!
0T!
0T
1S
0-
1,
1T!
1P!
1K!
1F!
1[!
0X!
1\!
#270000
0#
0l
0m
1F
#275000
1#
1l
1m
0F
1w
1{!
0|!
0y!
1z!
0v
0b!
0Y!
1=!
0U!
1\
0]
0Z
1[
0f
15
06
03
14
0@
0l!
1k!
0m!
0e!
1d!
0;!
0%!
0o
1Z!
1W!
0>!
02!
0V!
1.!
0<!
00!
0-!
1M
0a
1`
0c
0S
1R
0e
0g
1;
0:
19
0=
0,
1+
0?
0A
0[!
1X!
06!
0W!
13!
0T!
0N!
0I!
0D!
1>!
12!
0.!
0d!
0\!
0P!
0K!
0F!
0C!
1?!
16!
03!
1T!
0R
0+
1H!
1D!
1A!
0X!
0M!
1I!
1F!
1R!
1N!
1K!
0S!
1P!
0T!
#280000
0#
0l
0m
1F
#285000
1#
1l
1m
0F
0w
0r
1b!
0k!
0M
0`
0;
09
#290000
b1 "
b11 "
b1 !
b1001 !
1&
0#
1,!
1/!
1|
1~
1n
0l
1y
0m
1F
1}
1!!
1<!
1o
1$!
1u
1k
1j
1i
1E
1D
1C
1f!
1;!
17!
1T
1e
1d
1-
1?
1>
0p!
0z
#295000
1#
1l
1m
0F
1~!
1#"
0""
0!"
1t!
1u!
1r
0{!
0}!
0v!
0w!
0x!
0z!
0r!
1v
1"!
0}
1g!
0Q!
0L!
0G!
0i!
0=!
0B!
0\
0^
0W
0X
0Y
0[
0Q
1f
05
07
00
01
02
04
0)
1@
1l!
0$!
0u
1m!
0h!
0N!
0I!
0D!
02!
0?!
1a
0k
0j
0i
1c
1:
0E
0D
0C
1=
07!
0f!
1e!
0P!
0K!
0F!
06!
0A!
0d
0T
1S
0>
0-
1,
#300000
b10 "
b0 "
b1000 !
b0 !
0&
0#
0,!
0/!
0|
0~
0n
0l
0y
0m
1F
#305000
1#
1l
1m
0F
1w
0v
1z
1x
1t
1Y!
1U!
0f
0@
0l!
1k!
1c!
0m!
0e!
1d!
0;!
1W!
1.!
0<!
0a
1`
1N
0c
0S
1R
0e
0:
19
1*
0=
0,
1+
0?
1;!
1u
1X!
1T!
1<!
1e
1i
1?
1C
1f!
0d!
1T
0R
1-
0+
#310000
0#
0l
0m
1F
#315000
1#
1l
1m
0F
0u!
1p!
1q!
0w
1s!
1v
0U!
0!!
0t
0Y!
1P
1f
1(
1@
0c!
1l!
0k!
1'!
1m!
0.!
0W!
10!
1-!
0N
1a
0`
1h
1c
0*
1:
09
1B
1=
0u
0T!
0X!
1N!
1I!
1D!
1?!
12!
1.!
0i
0C
0f!
1e!
1P!
1K!
1F!
1A!
16!
1T!
0T
1S
0-
1,
#320000
0#
0l
0m
1F
#325000
1#
1l
1m
0F
1w
1}!
1v!
1w!
1x!
1y!
1z!
0v
0x
1t
0g!
1i!
1Y!
1)!
1^
1W
1X
1Y
1Z
1[
0f
17
10
11
12
13
14
0@
0l!
1k!
1c!
0m!
0e!
1d!
0;!
0'!
1W!
1[!
0<!
00!
0-!
0a
1`
1N
0c
0S
1R
0e
0h
0:
19
1*
0=
0,
1+
0?
0B
1;!
1u
1X!
1\!
0N!
0I!
0D!
0?!
02!
0.!
1<!
1e
1i
1?
1C
1f!
0d!
0P!
0K!
0F!
0A!
06!
0T!
1T
0R
1-
0+
#330000
0#
0l
0m
1F
#335000
1#
1l
1m
0F
0t!
0q!
0w
1|!
0z!
1v
0"!
0t
1h!
1U!
1Q!
1L!
1G!
1B!
0)!
1]
0[
1f
16
04
1@
0c!
1l!
0k!
1m!
1'!
1.!
1N!
1I!
1D!
1?!
0[!
10!
1-!
0N
1a
0`
1c
1h
0*
1:
09
1=
1B
0u
1T!
1P!
1K!
1F!
1A!
0\!
0R!
0N!
1M!
0I!
0H!
0D!
1C!
0?!
12!
1V!
0.!
0i
0C
0f!
1e!
1S!
0P!
1N!
0K!
1I!
0F!
1D!
0A!
16!
0Z!
0W!
0T!
0T
1S
0-
1,
1T!
1P!
1K!
1F!
1[!
0X!
1\!
#340000
0#
0l
0m
1F
#345000
1#
1l
1m
0F
1w
1{!
0|!
0y!
1z!
0v
0b!
1)!
0Y!
0B!
0U!
0Q!
0L!
0G!
1\
0]
0Z
1[
0f
15
06
03
14
0@
0l!
1k!
0m!
0e!
1d!
0;!
0'!
0o
11!
0[!
1Z!
1W!
0C!
1?!
0V!
1.!
0N!
0I!
0D!
0<!
00!
0-!
1M
0a
1`
0c
0S
1R
0e
0h
1;
0:
19
0=
0,
1+
0?
0B
0\!
01!
1[!
1X!
1H!
1A!
0W!
13!
0T!
0P!
0K!
0F!
1R!
1N!
0M!
1I!
0?!
0.!
0d!
02!
1\!
0I!
0S!
1P!
0N!
1K!
0A!
03!
1T!
0R
0+
06!
0K!
0T!
0P!
0X!
#350000
0#
0l
0m
1F
#355000
1#
1l
1m
0F
0w
0r
1b!
0k!
0M
0`
0;
09
#360000
0$
b10 !
b1000 "
b1001 "
b1011 "
b11 !
1&
0#
0s
1|
1~
1#!
1,!
1*!
1n
0l
1y
0m
1F
1:!
1}
1!!
1<!
1o
1u
1$!
1i
1k
1j
1C
1E
1D
1;!
1f!
17!
1e
1T
1d
1?
1-
1>
0p!
0z
#365000
1#
1l
1m
0F
0~!
1""
1t!
1u!
1r
0{!
0}!
0v!
0w!
0x!
0z!
1r!
0s!
1v
1Y!
1"!
1U!
0}
0)!
1g!
1Q!
1L!
1G!
0i!
1=!
1B!
0\
0^
0W
0X
0Y
0[
1Q
0P
1f
05
07
00
01
02
04
1)
0(
1@
1l!
0$!
0u
1'!
1W!
1.!
0[!
0h!
1N!
1I!
1D!
12!
1?!
1-!
1+!
1a
0k
0j
0i
1h
1:
0E
0D
0C
1B
07!
0f!
1e!
1X!
1T!
0\!
1P!
1K!
1F!
16!
1A!
1V!
0.!
0Z!
0W!
0d
0T
1S
0>
0-
1,
1W!
0T!
1[!
0X!
1X!
1\!
#370000
b1 !
b11 "
b10 "
b0 "
b0 !
0&
0#
0|
0~
0#!
0,!
0*!
0n
0l
0y
0m
1F
