Seventh/simulation/qsim/Seventh.msim.vcd
$comment
	File created using the following command:
		vcd file Seventh.msim.vcd -direction
$end
$date
	Mon Nov 20 16:06:07 2023
$end
$version
	ModelSim Version 10.1d
$end
$timescale
	1ps
$end
$scope module ctrl_un_BO_vlg_vec_tst $end
$var reg 4 ! a [3:0] $end
$var reg 4 " b [3:0] $end
$var reg 1 # clk $end
$var reg 1 $ cop $end
$var reg 1 % set $end
$var reg 1 & sno $end
$var wire 1 ' priznak [1] $end
$var wire 1 ( priznak [0] $end
$var wire 1 ) rr [7] $end
$var wire 1 * rr [6] $end
$var wire 1 + rr [5] $end
$var wire 1 , rr [4] $end
$var wire 1 - rr [3] $end
$var wire 1 . rr [2] $end
$var wire 1 / rr [1] $end
$var wire 1 0 rr [0] $end
$var wire 1 1 sko $end
$var wire 1 2 sampler $end
$scope module i1 $end
$var wire 1 3 gnd $end
$var wire 1 4 vcc $end
$var wire 1 5 unknown $end
$var tri1 1 6 devclrn $end
$var tri1 1 7 devpor $end
$var tri1 1 8 devoe $end
$var wire 1 9 rr[0]~output_o $end
$var wire 1 : rr[1]~output_o $end
$var wire 1 ; rr[2]~output_o $end
$var wire 1 < rr[3]~output_o $end
$var wire 1 = rr[4]~output_o $end
$var wire 1 > rr[5]~output_o $end
$var wire 1 ? rr[6]~output_o $end
$var wire 1 @ rr[7]~output_o $end
$var wire 1 A priznak[0]~output_o $end
$var wire 1 B priznak[1]~output_o $end
$var wire 1 C sko~output_o $end
$var wire 1 D clk~input_o $end
$var wire 1 E clk~inputclkctrl_outclk $end
$var wire 1 F cop~input_o $end
$var wire 1 G sno~input_o $end
$var wire 1 H b[2]~input_o $end
$var wire 1 I b[1]~input_o $end
$var wire 1 J incr_i~0_combout $end
$var wire 1 K Selector1~3_combout $end
$var wire 1 L state.s1~feeder_combout $end
$var wire 1 M set~input_o $end
$var wire 1 N set~inputclkctrl_outclk $end
$var wire 1 O state.s1~q $end
$var wire 1 P state.s2~q $end
$var wire 1 Q i[1]~0_combout $end
$var wire 1 R sno~inputclkctrl_outclk $end
$var wire 1 S i[0]~1_combout $end
$var wire 1 T q[2]~6_combout $end
$var wire 1 U b[3]~input_o $end
$var wire 1 V Selector1~2_combout $end
$var wire 1 W y[4]~0_combout $end
$var wire 1 X a[2]~input_o $end
$var wire 1 Y Mux5~0_combout $end
$var wire 1 Z a[1]~input_o $end
$var wire 1 [ Mux6~1_combout $end
$var wire 1 \ q[0]~0_combout $end
$var wire 1 ] Add1~1 $end
$var wire 1 ^ Add1~2_combout $end
$var wire 1 _ a[3]~input_o $end
$var wire 1 ` Mux0~0_combout $end
$var wire 1 a Add1~5 $end
$var wire 1 b Add1~6_combout $end
$var wire 1 c rr[1]~13 $end
$var wire 1 d rr[2]~15 $end
$var wire 1 e rr[3]~16_combout $end
$var wire 1 f Equal4~0_combout $end
$var wire 1 g Selector3~2_combout $end
$var wire 1 h Selector3~3_combout $end
$var wire 1 i rr[4]~10_combout $end
$var wire 1 j rr[4]~11_combout $end
$var wire 1 k rr[3]~reg0_q $end
$var wire 1 l q[3]~5_combout $end
$var wire 1 m Add1~7 $end
$var wire 1 n Add1~8_combout $end
$var wire 1 o rr[3]~17 $end
$var wire 1 p rr[4]~18_combout $end
$var wire 1 q rr[4]~reg0_q $end
$var wire 1 r q[4]~4_combout $end
$var wire 1 s Add1~9 $end
$var wire 1 t Add1~10_combout $end
$var wire 1 u rr[4]~19 $end
$var wire 1 v rr[5]~20_combout $end
$var wire 1 w rr[5]~reg0_q $end
$var wire 1 x q[5]~3_combout $end
$var wire 1 y Add1~11 $end
$var wire 1 z Add1~12_combout $end
$var wire 1 { rr[5]~21 $end
$var wire 1 | rr[6]~22_combout $end
$var wire 1 } rr[6]~reg0_q $end
$var wire 1 ~ q[6]~2_combout $end
$var wire 1 !! Add1~13 $end
$var wire 1 "! Add1~14_combout $end
$var wire 1 #! rr[6]~23 $end
$var wire 1 $! rr[7]~24_combout $end
$var wire 1 %! rr[7]~reg0_q $end
$var wire 1 &! q[7]~1_combout $end
$var wire 1 '! Add1~15 $end
$var wire 1 (! Add1~16_combout $end
$var wire 1 )! rr[0]~9 $end
$var wire 1 *! rr[1]~12_combout $end
$var wire 1 +! rr[1]~reg0_q $end
$var wire 1 ,! q[1]~7_combout $end
$var wire 1 -! Add1~3 $end
$var wire 1 .! Add1~4_combout $end
$var wire 1 /! rr[2]~14_combout $end
$var wire 1 0! rr[2]~reg0_q $end
$var wire 1 1! Equal4~1_combout $end
$var wire 1 2! Selector0~0_combout $end
$var wire 1 3! state.s3~q $end
$var wire 1 4! Selector0~1_combout $end
$var wire 1 5! Selector0~2_combout $end
$var wire 1 6! state.s0~q $end
$var wire 1 7! b[0]~input_o $end
$var wire 1 8! RB~1_combout $end
$var wire 1 9! RB~2_combout $end
$var wire 1 :! RB~0_combout $end
$var wire 1 ;! Mux6~0_combout $end
$var wire 1 <! a[0]~input_o $end
$var wire 1 =! Mux7~0_combout $end
$var wire 1 >! Add1~0_combout $end
$var wire 1 ?! rr[0]~8_combout $end
$var wire 1 @! rr[0]~reg0_q $end
$var wire 1 A! Equal3~0_combout $end
$var wire 1 B! Selector2~0_combout $end
$var wire 1 C! priznak[0]~reg0_q $end
$var wire 1 D! Equal3~1_combout $end
$var wire 1 E! pr[1]~0_combout $end
$var wire 1 F! priznak[1]~reg0_q $end
$var wire 1 G! i [1] $end
$var wire 1 H! i [0] $end
$var wire 1 I! RB [3] $end
$var wire 1 J! RB [2] $end
$var wire 1 K! RB [1] $end
$var wire 1 L! RB [0] $end
$var wire 1 M! RA [3] $end
$var wire 1 N! RA [2] $end
$var wire 1 O! RA [1] $end
$var wire 1 P! RA [0] $end
$upscope $end
$upscope $end
$enddefinitions $end
#0
$dumpvars
b0 !
b0 "
0#
1$
1%
0&
0(
0'
00
0/
0.
0-
0,
0+
0*
0)
01
x2
03
14
x5
16
17
18
09
0:
0;
0<
0=
0>
0?
0@
0A
0B
0C
0D
0E
1F
0G
0H
0I
0J
0K
0L
1M
1N
0O
0P
0Q
0R
0S
0T
0U
0V
0W
0X
0Y
0Z
0[
0\
0]
0^
0_
0`
0a
0b
1c
0d
0e
0f
0g
0h
0i
0j
0k
0l
1m
0n
1o
0p
0q
0r
0s
0t
0u
0v
0w
0x
1y
0z
1{
0|
0}
0~
0!!
0"!
0#!
0$!
0%!
0&!
1'!
0(!
0)!
0*!
0+!
0,!
1-!
0.!
0/!
00!
01!
02!
03!
14!
05!
06!
07!
08!
09!
0:!
0;!
0<!
0=!
0>!
0?!
0@!
0A!
0B!
0C!
1D!
0E!
0F!
0H!
0G!
0L!
0K!
0J!
0I!
0P!
0O!
0N!
0M!
$end
#5000
1#
1D
1E
02
#10000
b100 !
b110 !
b111 !
b100 "
b101 "
1&
0%
0#
17!
1H
1<!
1Z
1X
1G
0M
0D
1R
0N
0E
12
18!
1:!
15!
1h
1V
1K
1j
1L
#15000
1#
1D
1E
02
1P!
1J!
1L!
16!
1O!
1N!
1O
1W
19!
0:!
08!
0h
0V
0K
1=!
1[
1Y
0L
1>!
1^
1.!
1?!
1*!
1/!
#20000
b11 !
b1 !
b0 !
b1 "
b0 "
0&
0#
07!
0H
0<!
0Z
0X
0G
0D
0R
0E
12
#25000
1#
1D
1E
02
1P
0O
1@!
10!
1+!
1S
1Q
1J
0j
1\
0W
1T
0D!
1E!
19
1;
1:
10
1.
1/
1i
1K
1]
0>!
0=!
0[
0Y
1a
0.!
1j
1L
0?!
0]
1>!
0a
1.!
1b
0/!
0^
1?!
0b
1/!
1e
0*!
0e
#30000
0#
0D
0E
12
#35000
1#
1D
1E
02
0J!
1K!
0L!
1H!
1G!
0P
1O
0@!
1k
1:!
1,!
09!
0\
0J
1l
1A!
09
1<
00
1-
1^
0>!
0i
0K
1b
1*!
0?!
0L
1e
#40000
0#
0D
0E
12
#45000
1#
1D
1E
02
1P
0O
0S
1J
0l
0j
0T
1i
1K
0b
0.!
1j
1L
0e
0/!
#50000
0#
0D
0E
12
#55000
1#
1D
1E
02
1J!
0K!
0H!
0P
1O
0+!
1q
1W
1T
0:!
0,!
12!
0J
1r
1l
1D!
0E!
0:
1=
0/
1,
1=!
1[
1Y
1.!
0^
0i
0K
1n
1b
1>!
1^
1a
0.!
1/!
0*!
0L
1p
1e
1?!
1*!
0m
0b
0/!
1s
0n
0e
1t
0p
1v
#60000
0#
0D
0E
12
#65000
1#
1D
1E
02
1P
0O
1@!
00!
1+!
1w
0q
0k
04!
0r
0l
0j
0W
0D!
0A!
19
0;
1:
1>
0=
0<
10
0.
1/
1+
0,
0-
05!
0s
1n
1m
1b
0=!
0[
0Y
1E!
1C
11
0t
1p
0n
1e
0>!
0^
0a
1.!
0v
0p
0?!
0*!
0b
1/!
0e
#70000
0#
0D
0E
12
#75000
1#
1D
1E
02
06!
0P
14!
0C
01
#80000
b1000 !
b1000 "
b1010 "
1&
0#
1I
1U
1_
1G
0D
1R
0E
12
19!
15!
1h
1V
1K
1j
1L
0G!
02!
0Q
#85000
1#
1D
1E
02
0P!
0J!
1K!
16!
1M!
0O!
0N!
1I!
1O
0@!
0+!
0w
1;!
0T
1:!
09!
0h
0V
0K
1D!
09
0:
0>
00
0/
0+
1=!
1[
1Y
0.!
0L
0E!
1>!
1^
1.!
0/!
1?!
1*!
1/!
#90000
b0 !
b10 "
b0 "
0&
0#
0I
0U
0_
0G
0D
0R
0E
12
#95000
1#
1D
1E
02
1P
0O
1@!
10!
1+!
1S
1Q
1J
0;!
1,!
1&!
1~
1x
1r
1l
0j
0D!
1E!
19
1;
1:
10
1.
1/
1i
1K
0=!
0[
0Y
0-!
0^
1"!
1z
1t
1n
1b
1j
1L
0>!
1-!
1^
0*!
1$!
1|
1v
1p
1e
0?!
0.!
1*!
0/!
#100000
0#
0D
0E
12
#105000
1#
1D
1E
02
1J!
0K!
1H!
1G!
0P
1O
0@!
1k
1T
0:!
0J
0&!
0~
0x
0r
1A!
09
1<
00
1-
1.!
0i
0K
0"!
0z
0t
0n
1/!
0L
0$!
0|
0v
0p
#110000
0#
0D
0E
12
#115000
1#
1D
1E
02
1P
0O
0S
1J
0,!
1&!
1~
1x
1r
0j
1i
1K
0^
1"!
1z
1t
1n
1j
1L
0*!
1$!
1|
1v
1p
#120000
0#
0D
0E
12
#125000
1#
1D
1E
02
0J!
0H!
0P
1O
0+!
1q
1;!
12!
0J
0&!
0~
0x
1D!
0E!
0:
1=
0/
1,
1=!
1[
1Y
0i
0K
0"!
0z
0t
1>!
1^
1a
0.!
0L
0$!
0|
0v
1?!
1*!
0m
0b
0/!
1s
0n
0e
1t
0p
1v
#130000
0#
0D
0E
12
#135000
1#
1D
1E
02
1P
0O
1@!
00!
1+!
1w
0q
0k
04!
0;!
1&!
1~
1x
0j
0T
0D!
0A!
19
0;
1:
1>
0=
0<
10
0.
1/
1+
0,
0-
05!
0=!
0[
0Y
1"!
1z
0y
0t
0a
1.!
1E!
1C
11
0>!
0^
0.!
1$!
1|
1!!
0z
0v
1m
1b
1/!
0?!
0*!
0/!
0'!
0"!
0|
0s
1n
1e
1(!
0$!
1y
1t
1p
1?!
0!!
1z
1v
1'!
1"!
1|
0(!
1$!
0?!
#140000
0#
0D
0E
12
#145000
1#
1D
1E
02
06!
0P
14!
0C
01
#150000
b1 !
b100 "
b1001 !
b1100 "
1&
0#
1H
1U
1<!
1_
1G
0D
1R
0E
12
1:!
15!
1h
1V
1K
1j
1L
0G!
02!
0Q
#155000
1#
1D
1E
02
1P!
1J!
16!
1O
0@!
0+!
0w
0:!
0h
0V
0K
0&!
0~
0x
0r
0l
1D!
09
0:
0>
00
0/
0+
0L
0"!
0z
0t
0n
0b
0E!
0$!
0|
0v
0p
0e
#160000
b1000 !
b1000 "
b0 !
b0 "
0&
0#
0H
0U
0<!
0_
0G
0D
0R
0E
12
#165000
1#
1D
1E
02
1P
0O
1S
1Q
1J
1&!
1~
1x
1r
1l
0j
1T
1i
1K
1"!
1z
1t
1n
1b
1.!
1j
1L
1$!
1|
1v
1p
1e
1/!
#170000
0#
0D
0E
12
#175000
1#
1D
1E
02
0J!
1H!
1G!
0P
1O
1;!
0T
0J
0&!
0~
0x
0r
0l
1[
1Y
0.!
0i
0K
0"!
0z
0t
0n
0b
1^
1.!
0/!
0L
0$!
0|
0v
0p
0e
1*!
1/!
#180000
0#
0D
0E
12
#185000
1#
1D
1E
02
1P
0O
10!
1+!
0S
1J
0;!
1&!
1~
1x
1r
1l
0j
1E!
0D!
1;
1:
1.
1/
1i
1K
0[
0Y
1"!
1z
1t
1n
1b
1j
1L
0^
0.!
1$!
1|
1v
1p
1e
0*!
0/!
#190000
0#
0D
0E
12
#195000
1#
1D
1E
02
0H!
0P
1O
0+!
1k
12!
0J
1;!
0&!
0~
0x
0r
1T
1D!
1A!
0:
1<
0/
1-
0i
0K
1[
1Y
0"!
0z
0t
0n
1.!
0L
1^
1a
0.!
0$!
0|
0v
0p
1/!
1*!
0m
0b
0/!
1n
0e
1p
#200000
0#
0D
0E
12
#205000
1#
1D
1E
02
1P
0O
00!
1+!
1q
0k
04!
0;!
1&!
1~
1x
1r
0j
0T
0D!
0;
1:
1=
0<
0.
1/
1,
0-
05!
0[
0Y
1"!
1z
1t
1s
0n
0a
1.!
1C
11
0^
0.!
1$!
1|
1v
0y
0t
0p
1m
1b
1/!
0*!
0/!
1!!
0z
0v
0s
1n
1e
0'!
0"!
0|
1y
1t
1p
1(!
0$!
0!!
1z
1v
1?!
1'!
1"!
1|
0(!
1$!
0?!
#210000
0#
0D
0E
12
#215000
1#
1D
1E
02
06!
0P
14!
0C
01
#220000
b100 !
b110 !
b100 "
b1100 "
1&
0#
1H
1U
1Z
1X
1G
0D
1R
0E
12
1:!
15!
1h
1V
1K
1j
1L
0G!
02!
0Q
#225000
1#
1D
1E
02
0P!
1J!
16!
0M!
1O!
1N!
1O
0+!
0q
0:!
0h
0V
0K
0&!
0~
0x
0r
0l
1D!
0A!
0:
0=
0/
0,
0L
0"!
0z
0t
0n
0b
0E!
0$!
0|
0v
0p
0e
#230000
b10 !
b0 !
b1000 "
b0 "
0&
0#
0H
0U
0Z
0X
0G
0D
0R
0E
12
#235000
1#
1D
1E
02
1P
0O
1S
1Q
1J
1&!
1~
1x
1r
1l
0j
1T
1i
1K
1"!
1z
1t
1n
1b
1.!
1j
1L
1$!
1|
1v
1p
1e
1/!
#240000
0#
0D
0E
12
#245000
1#
1D
1E
02
0J!
1H!
1G!
0P
1O
1;!
0T
0J
0&!
0~
0x
0r
0l
1=!
1`
0.!
0i
0K
0"!
0z
0t
0n
0b
1>!
1"!
1z
1t
1n
1b
0/!
0L
0$!
0|
0v
0p
0e
1?!
1$!
1|
1v
1p
1e
#250000
0#
0D
0E
12
#255000
1#
1D
1E
02
1P
0O
1@!
1%!
1}
1w
1q
1k
0S
1J
0;!
1&!
1~
1x
1r
1l
0j
0D!
1A!
19
1@
1?
1>
1=
1<
10
1)
1*
1+
1,
1-
1i
1K
0=!
0`
0'!
0"!
1!!
0z
0y
0t
1s
0n
0m
0b
1j
1L
0>!
1m
1b
1(!
0$!
0|
0v
0p
0e
0s
1n
1e
1y
1t
1p
0!!
1z
1v
1'!
1"!
1|
0(!
1$!
0?!
#260000
0#
0D
0E
12
#265000
1#
1D
1E
02
0H!
0P
1O
1+!
0k
12!
0J
1;!
1,!
0l
1\
1E!
1:
0<
1/
0-
0i
0K
1=!
1`
1^
0b
1>!
0L
1]
0>!
0'!
0"!
1!!
0z
0y
0t
1s
0n
1b
1*!
0e
1?!
0-!
0^
0?!
1(!
0$!
1"!
0|
1z
0v
1t
0p
1e
1.!
0*!
1?!
1$!
1|
1v
1/!
#270000
0#
0D
0E
12
#275000
1#
1D
1E
02
1P
0O
10!
0+!
0q
1k
04!
0;!
0,!
1l
0j
0\
1;
0:
0=
1<
1.
0/
0,
1-
05!
0=!
0`
1-!
1^
0m
0b
0]
1>!
1C
11
0>!
0"!
0z
0t
1m
1b
0.!
1*!
0e
0^
1)!
0?!
0)!
1?!
0$!
0|
0v
0s
1n
1e
0/!
0*!
1y
1t
1p
0!!
1z
1v
1'!
1"!
1|
0(!
1$!
0?!
#280000
0#
0D
0E
12
#285000
1#
1D
1E
02
06!
0P
14!
0C
01
#290000
b1 "
b11 "
b1 !
b1001 !
1&
0#
1<!
1_
17!
1I
1G
0D
1R
0E
12
18!
19!
15!
1h
1V
1K
1j
1L
0G!
02!
0Q
#295000
1#
1D
1E
02
1P!
1K!
1L!
16!
1M!
0O!
0N!
0I!
1O
0@!
00!
0%!
0}
0w
0k
1:!
08!
0h
0V
0K
0&!
0~
0x
0r
0l
1D!
0A!
09
0;
0@
0?
0>
0<
00
0.
0)
0*
0+
0-
0L
0"!
0z
0t
0n
0b
0E!
0$!
0|
0v
0p
0e
#300000
b10 "
b0 "
b1000 !
b0 !
0&
0#
0<!
0_
07!
0I
0G
0D
0R
0E
12
#305000
1#
1D
1E
02
1P
0O
1S
1Q
1J
1,!
0j
1\
1i
1K
1^
1>!
1j
1L
1*!
1?!
#310000
0#
0D
0E
12
#315000
1#
1D
1E
02
1J!
0L!
1H!
1G!
0P
1O
1W
09!
0\
0J
0,!
1=!
1`
0>!
0i
0K
0^
1>!
1"!
1z
1t
1n
1b
0?!
0L
0*!
1?!
1$!
1|
1v
1p
1e
#320000
0#
0D
0E
12
#325000
1#
1D
1E
02
1P
0O
1@!
1%!
1}
1w
1q
1k
0S
1J
1,!
0j
0W
1T
0D!
1A!
19
1@
1?
1>
1=
1<
10
1)
1*
1+
1,
1-
1i
1K
1^
0=!
0`
1.!
1j
1L
1*!
0>!
0"!
0z
0t
0n
0b
1/!
0?!
0$!
0|
0v
0p
0e
#330000
0#
0D
0E
12
#335000
1#
1D
1E
02
0K!
0H!
0P
1O
1+!
0k
0:!
12!
0J
1&!
1~
1x
1r
1\
1W
0T
1E!
1:
0<
1/
0-
0i
0K
1"!
1z
1t
1n
1>!
1=!
1`
0.!
0L
1$!
1|
1v
1p
1?!
1]
0>!
0'!
0"!
1!!
0z
0y
0t
1s
0n
1b
0/!
0-!
0^
0?!
1(!
0$!
1"!
0|
1z
0v
1t
0p
1e
1.!
0*!
1?!
1$!
1|
1v
1/!
#340000
0#
0D
0E
12
#345000
1#
1D
1E
02
1P
0O
10!
0+!
0q
1k
04!
0,!
0&!
0~
0x
0r
0j
0\
0W
1T
1;
0:
0=
1<
1.
0/
0,
1-
05!
1-!
1^
0"!
0z
0t
0s
1n
0]
1>!
0=!
0`
1a
0.!
1C
11
0a
1.!
1*!
0$!
0|
0v
1y
1p
0^
1)!
0?!
0>!
1'!
1"!
0!!
1z
0n
0/!
0b
1/!
0z
0)!
1?!
0(!
1$!
0"!
1|
0p
0e
0|
0*!
0?!
0$!
#350000
0#
0D
0E
12
#355000
1#
1D
1E
02
06!
0P
14!
0C
01
#360000
0$
b10 !
b1000 "
b1001 "
b1011 "
b11 !
1&
0#
0F
17!
1I
1U
1<!
1Z
1G
0D
1R
0E
12
1K
18!
19!
15!
1h
1V
1L
1j
0G!
0Q
#365000
1#
1D
1E
02
0J!
1K!
1L!
16!
0M!
1O!
1I!
1O
0@!
00!
0%!
0}
0w
0k
1W
0T
1:!
1,!
1\
08!
0h
0V
0K
1&!
1~
1x
1r
1l
1D!
0A!
09
0;
0@
0?
0>
0<
00
0.
0)
0*
0+
0-
1=!
1[
0.!
1^
1>!
0L
1"!
1z
1t
1n
1b
0E!
1]
0>!
0-!
0^
0/!
1*!
1?!
1$!
1|
1v
1p
1e
1^
0?!
1.!
0*!
1*!
1/!
#370000
b1 !
b11 "
b10 "
b0 "
b0 !
0&
0#
07!
0I
0U
0<!
0Z
0G
0D
0R
0E
12
#375000
1#
1D
1E
02
1P
0O
10!
1+!
1%!
1}
1w
1q
1k
04!
1J
0j
0W
0D!
1A!
1;
1:
1@
1?
1>
1=
1<
1.
1/
1)
1*
1+
1,
1-
05!
1B!
0=!
0[
1C
11
0]
1>!
0^
1-!
1^
1?!
0*!
0.!
1*!
0/!
#380000
0#
0D
0E
12
#385000
1#
1D
1E
02
06!
0P
1C!
14!
0J
1A
1(
0B!
0C
01
#390000
0#
0D
0E
12
#395000
1#
1D
1E
02
#400000
b10 !
b10 "
b11 !
1&
0#
1I
1<!
1Z
1G
0D
1R
0E
12
0:!
15!
1h
1V
1K
1j
1L
#405000
1#
1D
1E
02
0L!
16!
0I!
1O
00!
0+!
0%!
0}
0w
0q
0k
09!
0\
1:!
0h
0V
0K
0&!
0~
0x
0r
0l
1W
1E!
1D!
0A!
0;
0:
0@
0?
0>
0=
0<
0.
0/
0)
0*
0+
0,
0-
0>!
0L
0"!
0z
0t
0n
0b
1=!
1[
0E!
0?!
0$!
0|
0v
0p
0e
1>!
0-!
0^
1?!
1.!
0*!
1/!
#410000
b1 !
b0 "
b0 !
0&
0#
0I
0<!
0Z
0G
0D
0R
0E
12
#415000
1#
1D
1E
02
1P
0O
1@!
10!
04!
1J
0j
0W
0D!
1E!
19
1;
10
1.
05!
1B!
0=!
0[
1C
11
0>!
1-!
1^
0?!
0.!
1*!
0/!
#420000
0#
0D
0E
12
#425000
1#
1D
1E
02
06!
0P
1F!
0C!
14!
0J
1B
0A
1'
0(
0B!
0C
01
#430000
0#
0D
0E
12
#435000
1#
1D
1E
02
#440000
b100 !
b1100 !
b1 "
b11 "
1&
0#
17!
1I
1X
1_
1G
0D
1R
0E
12
18!
19!
0:!
15!
1h
1V
1K
1j
1L
#445000
1#
1D
1E
02
0P!
1L!
16!
1M!
0O!
1N!
1O
0@!
00!
1\
1:!
08!
0h
0V
0K
1W
1D!
09
0;
00
0.
1>!
0L
1`
1Y
0E!
1?!
1"!
1z
1t
1n
1b
1.!
1$!
1|
1v
1p
1e
1/!
#450000
b1000 !
b0 !
b10 "
b0 "
0&
0#
07!
0I
0X
0_
0G
0D
0R
0E
12
#455000
1#
1D
1E
02
1P
0O
1@!
10!
1+!
1%!
1}
1w
1q
1k
04!
1J
0j
0W
0D!
1f
1A!
19
1;
1:
1@
1?
1>
1=
1<
10
1.
1/
1)
1*
1+
1,
1-
05!
1B!
1i
1g
0`
0Y
11!
1C
11
1j
1h
0"!
0z
0t
0n
0b
0.!
0B!
02!
0$!
0|
0v
0p
0e
0/!
14!
15!
0C
01
#460000
0#
0D
0E
12
#465000
1#
1D
1E
02
13!
0P
0@!
00!
0+!
0%!
0}
0w
0q
0k
1B!
04!
0J
1D!
0f
1E!
01!
0i
0g
0A!
09
0;
0:
0@
0?
0>
0=
0<
00
0.
0/
0)
0*
0+
0,
0-
05!
0E!
12!
0j
0h
1C
11
#470000
0#
0D
0E
12
#475000
1#
1D
1E
02
06!
03!
0F!
0B!
14!
0B
0'
0C
01
#480000
0#
0D
0E
12
#485000
1#
1D
1E
02
#490000
b10 !
b11 !
b111 !
b10 "
1&
0#
1I
1<!
1Z
1X
1G
0D
1R
0E
12
0:!
15!
1h
1V
1K
1j
1L
#495000
1#
1D
1E
02
1P!
0L!
16!
0M!
1O!
1O
09!
0\
1:!
0h
0V
0K
1W
0>!
0L
1=!
1[
1Y
0?!
1>!
0-!
0^
1.!
1?!
1a
0.!
0*!
1/!
1b
0/!
1e
#500000
b101 !
b100 !
b0 !
b0 "
0&
0#
0I
0<!
0Z
0X
0G
0D
0R
0E
12
#505000
1#
1D
1E
02
1P
0O
1@!
1k
04!
1J
0j
0W
0D!
1E!
1A!
19
1<
10
1-
05!
1B!
0=!
0[
0Y
1C
11
0>!
1-!
1^
0a
1.!
0?!
0.!
1*!
0b
1/!
0/!
0e
#510000
0#
0D
0E
12
#515000
1#
1D
1E
02
06!
0P
1F!
1C!
14!
0J
1B
1A
1'
1(
0B!
0C
01
#520000
0#
0D
0E
12
#525000
1#
1D
1E
02
#530000
1&
0#
1G
0D
1R
0E
12
0:!
15!
1h
1V
1K
1j
1L
#535000
1#
1D
1E
02
0P!
0K!
16!
0O!
0N!
1O
0@!
0k
0,!
0h
0V
0K
1W
1D!
0A!
09
0<
00
0-
0^
0L
0E!
0*!
#540000
0&
0#
0G
0D
0R
0E
12
#545000
1#
1D
1E
02
1P
0O
04!
1J
0j
0W
05!
1B!
1C
11
#550000
0#
0D
0E
12
#555000
1#
1D
1E
02
06!
0P
0F!
0C!
14!
0J
0B
0A
0'
0(
0B!
0C
01
#560000
0#
0D
0E
12
#565000
1#
1D
1E
02
#570000
b100 "
b1100 "
b1000 !
b1010 !
1&
0#
1Z
1_
1H
1U
1G
0D
1R
0E
12
1:!
15!
1h
1V
1K
1j
1L
#575000
1#
1D
1E
02
1J!
16!
1M!
1O!
1I!
1O
1W
1T
0:!
0h
0V
0K
1&!
1~
1x
1r
1l
1`
1[
1.!
0L
1"!
1z
1t
1n
1b
0'!
0"!
1!!
0z
0y
0t
1s
0n
0m
0b
1^
1/!
1$!
1|
1v
1p
1e
1(!
0$!
1"!
0|
1z
0v
1t
0p
1n
0e
1*!
1?!
1$!
1|
1v
1p
#580000
b1000 "
b0 "
b10 !
b0 !
0&
0#
0Z
0_
0H
0U
0G
0D
0R
0E
12
#585000
1#
1D
1E
02
1P
0O
1@!
10!
1+!
1%!
1}
1w
1q
04!
1J
0j
0W
0D!
1E!
1A!
19
1;
1:
1@
1?
1>
1=
10
1.
1/
1)
1*
1+
1,
05!
1B!
0`
0[
1C
11
0"!
0z
0t
0n
1m
1b
0^
0$!
0|
0v
0p
0s
1n
1e
0*!
1y
1t
1p
0!!
1z
1v
1'!
1"!
1|
0(!
1$!
0?!
#590000
0#
0D
0E
12
#595000
1#
1D
1E
02
06!
0P
1F!
1C!
14!
0J
1B
1A
1'
1(
0B!
0C
01
#600000
0#
0D
0E
12
#605000
1#
1D
1E
02
#610000
0#
0D
0E
12
#615000
1#
1D
1E
02
#620000
0#
0D
0E
12
#625000
1#
1D
1E
02
#630000
0#
0D
0E
12
#635000
1#
1D
1E
02
#640000
0#
0D
0E
12
#645000
1#
1D
1E
02
#650000
0#
0D
0E
12
#655000
1#
1D
1E
02
#660000
0#
0D
0E
12
#665000
1#
1D
1E
02
#670000
0#
0D
0E
12
#675000
1#
1D
1E
02
#680000
0#
0D
0E
12
#685000
1#
1D
1E
02
#690000
0#
0D
0E
12
#695000
1#
1D
1E
02
#700000
0#
0D
0E
12
#705000
1#
1D
1E
02
#710000
0#
0D
0E
12
#715000
1#
1D
1E
02
#720000
0#
0D
0E
12
#725000
1#
1D
1E
02
#730000
0#
0D
0E
12
#735000
1#
1D
1E
02
#740000
0#
0D
0E
12
#745000
1#
1D
1E
02
#750000
0#
0D
0E
12
#755000
1#
1D
1E
02
#760000
0#
0D
0E
12
#765000
1#
1D
1E
02
#770000
0#
0D
0E
12
#775000
1#
1D
1E
02
#780000
0#
0D
0E
12
#785000
1#
1D
1E
02
#790000
0#
0D
0E
12
#795000
1#
1D
1E
02
#800000
0#
0D
0E
12
#805000
1#
1D
1E
02
#810000
0#
0D
0E
12
#815000
1#
1D
1E
02
#820000
0#
0D
0E
12
#825000
1#
1D
1E
02
#830000
0#
0D
0E
12
#835000
1#
1D
1E
02
#840000
0#
0D
0E
12
#845000
1#
1D
1E
02
#850000
0#
0D
0E
12
#855000
1#
1D
1E
02
#860000
0#
0D
0E
12
#865000
1#
1D
1E
02
#870000
0#
0D
0E
12
#875000
1#
1D
1E
02
#880000
0#
0D
0E
12
#885000
1#
1D
1E
02
#890000
0#
0D
0E
12
#895000
1#
1D
1E
02
#900000
0#
0D
0E
12
#905000
1#
1D
1E
02
#910000
0#
0D
0E
12
#915000
1#
1D
1E
02
#920000
0#
0D
0E
12
#925000
1#
1D
1E
02
#930000
0#
0D
0E
12
#935000
1#
1D
1E
02
#940000
0#
0D
0E
12
#945000
1#
1D
1E
02
#950000
0#
0D
0E
12
#955000
1#
1D
1E
02
#960000
0#
0D
0E
12
#965000
1#
1D
1E
02
#970000
0#
0D
0E
12
#975000
1#
1D
1E
02
#980000
0#
0D
0E
12
#985000
1#
1D
1E
02
#990000
0#
0D
0E
12
#995000
1#
1D
1E
02
