Eighth/simulation/qsim/Eighth.msim.vcd
$comment
	File created using the following command:
		vcd file Eighth.msim.vcd -direction
$end
$date
	Fri Nov 15 15:36:36 2024
$end
$version
	ModelSim Version 10.1d
$end
$timescale
	1ps
$end
$scope module control_unit_for_4op_BO_vlg_vec_tst $end
$var reg 4 ! a [3:0] $end
$var reg 4 " b [3:0] $end
$var reg 1 # clk $end
$var reg 2 $ cop [1:0] $end
$var reg 1 % set $end
$var reg 1 & sno $end
$var wire 1 ' f [3] $end
$var wire 1 ( f [2] $end
$var wire 1 ) f [1] $end
$var wire 1 * incr_i $end
$var wire 1 + next_state_out [2] $end
$var wire 1 , next_state_out [1] $end
$var wire 1 - next_state_out [0] $end
$var wire 1 . priznak [1] $end
$var wire 1 / priznak [0] $end
$var wire 1 0 rr [7] $end
$var wire 1 1 rr [6] $end
$var wire 1 2 rr [5] $end
$var wire 1 3 rr [4] $end
$var wire 1 4 rr [3] $end
$var wire 1 5 rr [2] $end
$var wire 1 6 rr [1] $end
$var wire 1 7 rr [0] $end
$var wire 1 8 s_out [2] $end
$var wire 1 9 s_out [1] $end
$var wire 1 : s_out [0] $end
$var wire 1 ; sko $end
$var wire 1 < y [10] $end
$var wire 1 = y [9] $end
$var wire 1 > y [8] $end
$var wire 1 ? y [7] $end
$var wire 1 @ y [6] $end
$var wire 1 A y [5] $end
$var wire 1 B y [4] $end
$var wire 1 C y [3] $end
$var wire 1 D y [2] $end
$var wire 1 E y [1] $end
$var wire 1 F sampler $end
$scope module i1 $end
$var wire 1 G gnd $end
$var wire 1 H vcc $end
$var wire 1 I unknown $end
$var tri1 1 J devclrn $end
$var tri1 1 K devpor $end
$var tri1 1 L devoe $end
$var wire 1 M sko~output_o $end
$var wire 1 N incr_i~output_o $end
$var wire 1 O f[3]~output_o $end
$var wire 1 P f[2]~output_o $end
$var wire 1 Q f[1]~output_o $end
$var wire 1 R next_state_out[2]~output_o $end
$var wire 1 S next_state_out[1]~output_o $end
$var wire 1 T next_state_out[0]~output_o $end
$var wire 1 U priznak[1]~output_o $end
$var wire 1 V priznak[0]~output_o $end
$var wire 1 W rr[7]~output_o $end
$var wire 1 X rr[6]~output_o $end
$var wire 1 Y rr[5]~output_o $end
$var wire 1 Z rr[4]~output_o $end
$var wire 1 [ rr[3]~output_o $end
$var wire 1 \ rr[2]~output_o $end
$var wire 1 ] rr[1]~output_o $end
$var wire 1 ^ rr[0]~output_o $end
$var wire 1 _ s_out[2]~output_o $end
$var wire 1 ` s_out[1]~output_o $end
$var wire 1 a s_out[0]~output_o $end
$var wire 1 b y[10]~output_o $end
$var wire 1 c y[9]~output_o $end
$var wire 1 d y[8]~output_o $end
$var wire 1 e y[7]~output_o $end
$var wire 1 f y[6]~output_o $end
$var wire 1 g y[5]~output_o $end
$var wire 1 h y[4]~output_o $end
$var wire 1 i y[3]~output_o $end
$var wire 1 j y[2]~output_o $end
$var wire 1 k y[1]~output_o $end
$var wire 1 l clk~input_o $end
$var wire 1 m clk~inputclkctrl_outclk $end
$var wire 1 n cop[1]~input_o $end
$var wire 1 o cop[0]~input_o $end
$var wire 1 p inst2|Equal5~0_combout $end
$var wire 1 q sno~input_o $end
$var wire 1 r inst2|Selector0~0_combout $end
$var wire 1 s set~input_o $end
$var wire 1 t set~inputclkctrl_outclk $end
$var wire 1 u inst2|state.s0~q $end
$var wire 1 v inst2|i[0]~6_combout $end
$var wire 1 w sno~inputclkctrl_outclk $end
$var wire 1 x inst2|incr_i~4_combout $end
$var wire 1 y inst2|Selector1~0_combout $end
$var wire 1 z inst2|state.s1~q $end
$var wire 1 { inst2|state.s2~q $end
$var wire 1 | inst2|i[1]~7_combout $end
$var wire 1 } b[1]~input_o $end
$var wire 1 ~ b[0]~input_o $end
$var wire 1 !! inst|RB~2_combout $end
$var wire 1 "! inst|RB~1_combout $end
$var wire 1 #! b[2]~input_o $end
$var wire 1 $! inst|RB~0_combout $end
$var wire 1 %! inst|q[2]~0_combout $end
$var wire 1 &! b[3]~input_o $end
$var wire 1 '! inst2|Selector1~1_combout $end
$var wire 1 (! inst2|y[4]~3_combout $end
$var wire 1 )! a[2]~input_o $end
$var wire 1 *! inst2|y[5]~1_combout $end
$var wire 1 +! inst|Mux5~0_combout $end
$var wire 1 ,! a[1]~input_o $end
$var wire 1 -! inst|Mux6~0_combout $end
$var wire 1 .! a[3]~input_o $end
$var wire 1 /! inst|Mux0~0_combout $end
$var wire 1 0! inst|Add0~5 $end
$var wire 1 1! inst|Add0~6_combout $end
$var wire 1 2! a[0]~input_o $end
$var wire 1 3! inst|Mux7~0_combout $end
$var wire 1 4! inst|Add0~0_combout $end
$var wire 1 5! inst|rr[0]~11 $end
$var wire 1 6! inst|rr[1]~13 $end
$var wire 1 7! inst|rr[2]~15 $end
$var wire 1 8! inst|rr[3]~16_combout $end
$var wire 1 9! inst|Equal1~0_combout $end
$var wire 1 :! inst|Equal1~1_combout $end
$var wire 1 ;! inst2|Selector4~0_combout $end
$var wire 1 <! inst2|Selector5~0_combout $end
$var wire 1 =! inst2|Selector5~1_combout $end
$var wire 1 >! inst|rr[5]~26_combout $end
$var wire 1 ?! inst|q[3]~7_combout $end
$var wire 1 @! inst|Add0~7 $end
$var wire 1 A! inst|Add0~8_combout $end
$var wire 1 B! inst|rr[3]~17 $end
$var wire 1 C! inst|rr[4]~18_combout $end
$var wire 1 D! inst|q[4]~6_combout $end
$var wire 1 E! inst|Add0~9 $end
$var wire 1 F! inst|Add0~10_combout $end
$var wire 1 G! inst|rr[4]~19 $end
$var wire 1 H! inst|rr[5]~20_combout $end
$var wire 1 I! inst|q[5]~5_combout $end
$var wire 1 J! inst|Add0~11 $end
$var wire 1 K! inst|Add0~12_combout $end
$var wire 1 L! inst|rr[5]~21 $end
$var wire 1 M! inst|rr[6]~22_combout $end
$var wire 1 N! inst|q[6]~4_combout $end
$var wire 1 O! inst|Add0~13 $end
$var wire 1 P! inst|Add0~14_combout $end
$var wire 1 Q! inst|rr[6]~23 $end
$var wire 1 R! inst|rr[7]~24_combout $end
$var wire 1 S! inst|q[7]~3_combout $end
$var wire 1 T! inst|Add0~15 $end
$var wire 1 U! inst|Add0~16_combout $end
$var wire 1 V! inst|rr[0]~10_combout $end
$var wire 1 W! inst|q[0]~2_combout $end
$var wire 1 X! inst|Add0~1 $end
$var wire 1 Y! inst|Add0~2_combout $end
$var wire 1 Z! inst|rr[1]~12_combout $end
$var wire 1 [! inst|q[1]~1_combout $end
$var wire 1 \! inst|Add0~3 $end
$var wire 1 ]! inst|Add0~4_combout $end
$var wire 1 ^! inst|rr[2]~14_combout $end
$var wire 1 _! inst2|next_state.s3~0_combout $end
$var wire 1 `! inst2|state.s3~feeder_combout $end
$var wire 1 a! inst2|state.s3~q $end
$var wire 1 b! inst2|Selector3~0_combout $end
$var wire 1 c! inst2|state.s4~q $end
$var wire 1 d! inst2|sko~0_combout $end
$var wire 1 e! inst2|incr_i~combout $end
$var wire 1 f! inst2|next_state_out[2]~0_combout $end
$var wire 1 g! inst2|next_state_out[1]~1_combout $end
$var wire 1 h! inst2|next_state_out[0]~2_combout $end
$var wire 1 i! inst|Equal0~0_combout $end
$var wire 1 j! inst|pr[1]~0_combout $end
$var wire 1 k! inst|Equal0~1_combout $end
$var wire 1 l! inst2|s_out[2]~0_combout $end
$var wire 1 m! inst2|s_out[1]~1_combout $end
$var wire 1 n! inst2|s_out[0]~2_combout $end
$var wire 1 o! inst2|y[9]~0_combout $end
$var wire 1 p! inst2|y[5]~2_combout $end
$var wire 1 q! inst2|y[4]~4_combout $end
$var wire 1 r! inst|priznak [1] $end
$var wire 1 s! inst|priznak [0] $end
$var wire 1 t! inst2|i [1] $end
$var wire 1 u! inst2|i [0] $end
$var wire 1 v! inst|RB [3] $end
$var wire 1 w! inst|RB [2] $end
$var wire 1 x! inst|RB [1] $end
$var wire 1 y! inst|RB [0] $end
$var wire 1 z! inst|rr [7] $end
$var wire 1 {! inst|rr [6] $end
$var wire 1 |! inst|rr [5] $end
$var wire 1 }! inst|rr [4] $end
$var wire 1 ~! inst|rr [3] $end
$var wire 1 !" inst|rr [2] $end
$var wire 1 "" inst|rr [1] $end
$var wire 1 #" inst|rr [0] $end
$var wire 1 $" inst|RA [3] $end
$var wire 1 %" inst|RA [2] $end
$var wire 1 &" inst|RA [1] $end
$var wire 1 '" inst|RA [0] $end
$upscope $end
$upscope $end
$enddefinitions $end
#0
$dumpvars
b0 !
b0 "
0#
b1 $
1%
0&
0)
0(
0'
0*
0-
0,
0+
0/
0.
07
06
05
04
03
02
01
00
0:
09
08
0;
0E
0D
0C
0B
0A
0@
0?
0>
0=
0<
xF
0G
1H
xI
1J
1K
1L
0M
0N
0O
0P
0Q
0R
0S
0T
0U
0V
0W
0X
0Y
0Z
0[
0\
0]
0^
0_
0`
0a
0b
0c
0d
0e
0f
0g
0h
0i
0j
0k
0l
0m
0n
1o
1p
0q
0r
1s
1t
0u
0v
0w
0x
0y
0z
0{
0|
0}
0~
0!!
0"!
0#!
0$!
0%!
0&!
0'!
0(!
0)!
0*!
0+!
0,!
0-!
0.!
0/!
00!
01!
02!
03!
04!
05!
16!
07!
08!
09!
0:!
0;!
0<!
0=!
0>!
0?!
1@!
0A!
1B!
0C!
0D!
0E!
0F!
0G!
0H!
0I!
1J!
0K!
1L!
0M!
0N!
0O!
0P!
0Q!
0R!
0S!
1T!
0U!
0V!
0W!
0X!
0Y!
0Z!
0[!
1\!
0]!
0^!
0_!
0`!
0a!
0b!
0c!
1d!
0e!
0f!
0g!
0h!
1i!
0j!
0k!
1l!
0m!
0n!
0o!
0p!
0q!
0s!
0r!
0u!
0t!
0y!
0x!
0w!
0v!
0#"
0""
0!"
0~!
0}!
0|!
0{!
0z!
0'"
0&"
0%"
0$"
$end
#20000
1#
1l
1m
0F
#40000
b100 !
b110 !
b1000 "
b1100 "
1&
0%
0#
1#!
1&!
1,!
1)!
1q
0s
0l
1w
0t
0m
1F
1$!
1>!
1<!
1r
1'!
1y
1k
1j
1i
1E
1D
1C
1=!
1h!
1;!
1e
1T
1d
1?
1-
1>
#60000
1#
1l
1m
0F
1&"
1%"
1u
1v!
1w!
1z
0$!
1Q
1P
1f
1)
1(
1@
1n!
0'!
0y
1o!
1a
0k
0j
0i
1c
1:
0E
0D
0C
1=
0;!
0h!
1g!
0d
0T
1S
0>
0-
1,
#80000
b10 !
b0 !
b100 "
b0 "
0&
0#
0#!
0&!
0,!
0)!
0q
0l
0w
0m
1F
#100000
1#
1l
1m
0F
1{
0z
1|
1x
1S!
1N!
1I!
1D!
1?!
0<!
1%!
0f
0@
0n!
1m!
0o!
0g!
1f!
1v
1P!
1K!
1F!
1A!
11!
1]!
0a
1`
0c
0S
1R
0:
19
0=
0,
1+
1e!
1y
1R!
1M!
1H!
1C!
18!
1^!
1N
1i
1*
1C
1h!
0f!
1T
0R
1-
0+
#120000
0#
0l
0m
1F
#140000
1#
1l
1m
0F
1t!
0{
1u!
0w!
1z
0x
0v
1*!
0%!
0S!
0N!
0I!
0D!
0?!
1<!
0P
1f
0(
1@
1n!
0m!
1o!
1v
13!
1/!
0]!
0P!
0K!
0F!
0A!
01!
1a
0`
1c
1:
09
1=
0e!
0y
1p!
14!
1P!
1K!
1F!
1A!
11!
0^!
0R!
0M!
0H!
0C!
08!
0N
0i
1g
0*
0C
1A
0h!
1g!
1V!
1R!
1M!
1H!
1C!
18!
0T
1S
0-
1,
#160000
0#
0l
0m
1F
#180000
1#
1l
1m
0F
1{
1#"
1z!
1{!
1|!
1}!
1~!
0z
1x
0i!
1S!
1N!
1I!
1k!
1D!
1?!
0<!
03!
0/!
1^
1W
1X
1Y
1Z
1[
0f
17
10
11
12
13
14
0@
0n!
1m!
0p!
0o!
0g!
1f!
0v
04!
0a
1`
0g
0c
0S
1R
0:
19
0A
0=
0,
1+
1e!
1y
0V!
1N
1i
1*
1C
1h!
0f!
1T
0R
1-
0+
#200000
0#
0l
0m
1F
#220000
1#
1l
1m
0F
0{
0u!
1""
0~!
1z
0x
1v
1[!
1j!
0?!
1W!
1<!
13!
1/!
1]
0[
1f
16
04
1@
1n!
0m!
1p!
1o!
0v
1Y!
1X!
0T!
0P!
1O!
0K!
0J!
0F!
1E!
0A!
1a
0`
1g
1c
1:
09
1A
1=
0e!
0y
1Z!
0\!
0Y!
1U!
0R!
1P!
0M!
1K!
0H!
1F!
0C!
0N
0i
0*
0C
0h!
1g!
1]!
0Z!
1V!
1R!
1M!
1H!
0T
1S
0-
1,
1^!
#240000
0#
0l
0m
1F
#260000
1#
1l
1m
0F
1{
1!"
0""
0}!
1~!
0z
0d!
0[!
1?!
0W!
0<!
03!
0/!
1\
0]
0Z
1[
0f
15
06
03
14
0@
0n!
1m!
0p!
0o!
0g!
1f!
0r
1\!
1Y!
0X!
0P!
0K!
0F!
0E!
1A!
1M
0a
1`
0g
0c
0S
1R
1;
0:
19
0A
0=
0,
1+
0=!
0]!
1Z!
0Y!
0R!
0M!
0H!
1J!
1F!
1C!
0>!
0e
0?
0f!
0^!
0Z!
0O!
1K!
1H!
0R
0+
1T!
1P!
1M!
0U!
1R!
0V!
#280000
0#
0l
0m
1F
#300000
1#
1l
1m
0F
0{
0u
1d!
0m!
0M
0`
0;
09
#320000
b1000 !
b10 "
b1010 "
b1110 "
1&
0#
1}
1#!
1&!
1.!
1q
0l
1w
0m
1F
1"!
1$!
1>!
1<!
1r
1'!
1y
1k
1j
1i
1E
1D
1C
1=!
1h!
1;!
1e
1T
1d
1?
1-
1>
0t!
0|
#340000
1#
1l
1m
0F
1$"
0&"
0%"
1x!
1u
0!"
0#"
0z!
0{!
0|!
0~!
1w!
1z
1-!
1+!
0"!
1i!
0S!
0N!
0I!
0k!
0?!
0*!
0D!
13!
0\
0^
0W
0X
0Y
0[
1P
1f
05
07
00
01
02
04
1(
1@
1n!
0'!
0y
1p!
1o!
1Y!
1]!
0j!
0P!
0K!
0F!
01!
03!
0-!
0+!
0A!
14!
1a
0k
0j
0i
1g
1c
1:
0E
0D
0C
1A
1=
0p!
0;!
0h!
1g!
1Z!
1^!
0R!
0M!
0H!
08!
04!
0Y!
0]!
0C!
1V!
0g
0d
0T
1S
0A
0>
0-
1,
0V!
0Z!
0^!
#360000
b0 !
b1100 "
b100 "
b0 "
0&
0#
0}
0#!
0&!
0.!
0q
0l
0w
0m
1F
#380000
1#
1l
1m
0F
1{
0z
1|
1x
1[!
1S!
1N!
1I!
1D!
1?!
0<!
1%!
0f
0@
0n!
1m!
0o!
0g!
1f!
1v
1Y!
1P!
1K!
1F!
1A!
11!
1]!
0a
1`
0c
0S
1R
0:
19
0=
0,
1+
1e!
1y
1Z!
1R!
1M!
1H!
1C!
18!
1^!
1N
1i
1*
1C
1h!
0f!
1T
0R
1-
0+
#400000
0#
0l
0m
1F
#420000
1#
1l
1m
0F
0x!
1t!
0{
1u!
1z
0[!
0$!
0x
0v
0S!
0N!
0I!
0D!
0?!
1<!
0%!
1f
1@
1n!
0m!
1o!
0Y!
1v
0P!
0K!
0F!
0A!
01!
0]!
1a
0`
1c
1:
09
1=
0e!
0y
0Z!
0R!
0M!
0H!
0C!
08!
0^!
0N
0i
0*
0C
0h!
1g!
0T
1S
0-
1,
#440000
0#
0l
0m
1F
#460000
1#
1l
1m
0F
1{
0z
1x
1S!
1N!
1I!
1D!
1?!
0<!
1%!
0f
0@
0n!
1m!
0o!
0g!
1f!
0v
1P!
1K!
1F!
1A!
11!
1]!
0a
1`
0c
0S
1R
0:
19
0=
0,
1+
1e!
1y
1R!
1M!
1H!
1C!
18!
1^!
1N
1i
1*
1C
1h!
0f!
1T
0R
1-
0+
#480000
0#
0l
0m
1F
#500000
1#
1l
1m
0F
0{
0u!
0w!
1z
0x
1v
1*!
0%!
0S!
0N!
0I!
0D!
0?!
1<!
0P
1f
0(
1@
1n!
0m!
1o!
0v
13!
1-!
1+!
0]!
0P!
0K!
0F!
0A!
01!
1a
0`
1c
1:
09
1=
0e!
0y
1p!
14!
1Y!
1]!
0^!
0R!
0M!
0H!
0C!
08!
0N
0i
1g
0*
0C
1A
0h!
1g!
1V!
1Z!
1^!
0T
1S
0-
1,
#520000
0#
0l
0m
1F
#540000
1#
1l
1m
0F
1{
1!"
1""
1#"
0z
0d!
1j!
0i!
1S!
1N!
1I!
1D!
1?!
0<!
03!
0-!
0+!
1\
1]
1^
0f
15
16
17
0@
0n!
1m!
0p!
0o!
0g!
1f!
0r
1P!
1K!
1F!
1A!
11!
04!
0Y!
0]!
1M
0a
1`
0g
0c
0S
1R
1;
0:
19
0A
0=
0,
1+
0=!
1R!
1M!
1H!
1C!
18!
0V!
0Z!
0^!
0>!
0e
0?
0f!
0R
0+
#560000
0#
0l
0m
1F
#580000
1#
1l
1m
0F
0{
0u
1d!
0m!
0M
0`
0;
09
#600000
b1 !
b1 "
b101 !
b101 "
1&
0#
1~
1#!
12!
1)!
1q
0l
1w
0m
1F
1!!
1$!
1>!
1<!
1r
1'!
1y
1k
1j
1i
1E
1D
1C
1=!
1h!
1;!
1e
1T
1d
1?
1-
1>
0t!
0|
#620000
1#
1l
1m
0F
1'"
0$"
1%"
1y!
1u
0!"
0""
0#"
0v!
1w!
1z
1/!
1"!
0$!
0!!
1i!
0S!
0N!
0I!
0D!
0?!
0*!
1(!
1-!
0\
0]
0^
0Q
1P
1f
05
06
07
0)
1(
1@
1n!
0'!
0y
1p!
1o!
0j!
13!
0/!
0-!
1+!
1Y!
1a
0k
0j
0i
1g
1c
1:
0E
0D
0C
1A
1=
0p!
1q!
0;!
0h!
1g!
14!
0P!
0K!
0F!
0A!
01!
0Y!
1]!
1Z!
0g
1h
0d
0T
1S
0A
1B
0>
0-
1,
1V!
0R!
0M!
0H!
0C!
08!
0Z!
1^!
#640000
b100 !
b100 "
b0 !
b0 "
0&
0#
0~
0#!
02!
0)!
0q
0l
0w
0m
1F
#660000
1#
1l
1m
0F
1{
1!"
1#"
0z
1|
1x
1j!
1%!
0i!
1W!
0<!
03!
0+!
1\
1^
0f
15
17
0@
0n!
1m!
0q!
0o!
0g!
1f!
1v
0a
1`
0h
0c
0S
1R
0:
19
0B
0=
0,
1+
1e!
1y
1N
1i
1*
1C
1h!
0f!
1T
0R
1-
0+
#680000
0#
0l
0m
1F
#700000
1#
1l
1m
0F
1x!
0y!
1t!
0{
1u!
0!"
1""
0#"
1~!
0w!
1z
1[!
1$!
0W!
0"!
0x
0v
0%!
1k!
1?!
0(!
1<!
13!
1+!
0\
1]
0^
1[
0P
1f
05
16
07
14
0(
1@
1n!
0m!
1q!
1o!
1Y!
1v
11!
03!
0+!
1a
0`
1h
1c
1:
09
1B
1=
0e!
0y
0q!
1Z!
18!
04!
0]!
0N
0i
0h
0*
0C
0B
0h!
1g!
0V!
0^!
0T
1S
0-
1,
#720000
0#
0l
0m
1F
#740000
1#
1l
1m
0F
1{
0z
1x
0?!
0<!
0f
0@
0n!
1m!
0o!
0g!
1f!
0v
01!
0a
1`
0c
0S
1R
0:
19
0=
0,
1+
1e!
1y
08!
1N
1i
1*
1C
1h!
0f!
1T
0R
1-
0+
#760000
0#
0l
0m
1F
#780000
1#
1l
1m
0F
0x!
0{
0u!
1!"
0""
1}!
0~!
1w!
1z
0[!
0$!
0x
1v
1%!
1i!
1D!
1(!
1<!
1\
0]
1Z
0[
1P
1f
15
06
13
04
1(
1@
1n!
0m!
1o!
0Y!
0v
1]!
1A!
13!
1+!
1a
0`
1c
1:
09
1=
0e!
0y
1q!
0Z!
1^!
1C!
14!
10!
0]!
0N
0i
1h
0*
0C
1B
0h!
1g!
1V!
11!
0^!
0T
1S
0-
1,
18!
#800000
b10 "
b1010 "
b1011 "
b1111 "
0#
1~
1}
1#!
1&!
0l
0m
1F
#820000
1#
1l
1m
0F
1{
0!"
1#"
1~!
0z
0d!
0j!
0i!
0D!
0<!
03!
0+!
0\
1^
1[
0f
05
17
14
0@
0n!
1m!
0q!
0o!
0g!
1f!
0r
0A!
04!
00!
1]!
1M
0a
1`
0h
0c
0S
1R
1;
0:
19
0B
0=
0,
1+
0=!
0C!
0V!
01!
1^!
0>!
0e
0?
0f!
08!
0R
0+
#830000
b1101 "
b101 "
b100 "
b0 "
0~
0}
0#!
0&!
1F
#840000
0#
0l
0m
0F
#860000
1#
1l
1m
1F
0{
0u
1d!
0m!
0M
0`
0;
09
#880000
0#
0l
0m
0F
#900000
1#
1l
1m
1F
#920000
0#
0l
0m
0F
#940000
1#
1l
1m
1F
#960000
b0 $
b10 !
b11 !
1&
b10 "
b1010 "
0#
1q
1}
1&!
12!
1,!
0o
0l
1w
0m
0F
1>!
1<!
1"!
1r
0p
1'!
1y
1k
1j
1i
1E
1D
1C
1=!
1h!
1;!
1e
1T
1d
1?
1-
1>
0t!
0|
#980000
1#
1l
1m
1F
1&"
0%"
1x!
1u
0#"
0}!
0~!
1v!
0w!
1z
1-!
1[!
1$!
0"!
1i!
0k!
1j!
1D!
1?!
1S!
1N!
1I!
0%!
13!
0^
0Z
0[
1Q
0P
1f
07
03
04
1)
0(
1@
1n!
0'!
0y
1q!
0\!
0j!
1A!
11!
1P!
1K!
1F!
0]!
14!
1a
0k
0j
0i
1h
1:
0E
0D
0C
1B
0;!
0h!
1g!
1]!
1C!
18!
1R!
1M!
1H!
0^!
1V!
0d
0T
1S
0>
0-
1,
1^!
#1000000
b1 !
b0 !
0&
b1000 "
b0 "
0#
0q
0}
0&!
02!
0,!
0l
0w
0m
0F
#1020000
1#
1l
1m
1F
1{
1!"
1#"
1z!
1{!
1|!
1}!
1~!
0z
1x
0i!
1k!
0<!
03!
0-!
1\
1^
1W
1X
1Y
1Z
1[
0f
15
17
10
11
12
13
14
0@
0n!
1m!
0q!
0g!
1f!
04!
1\!
1Y!
0a
1`
0h
0S
1R
0:
19
0B
0,
1+
1b!
0=!
0V!
0]!
1Z!
0>!
1b
0e
1<
0?
0^!
#1040000
0#
0l
0m
0F
#1060000
1#
1l
1m
1F
1c!
0{
1s!
0d!
0l!
0x
1V
1/
0m!
0r
1M
1_
0`
1;
18
09
0b!
0b
0<
0f!
0R
0+
#1080000
0#
0l
0m
0F
#1100000
1#
1l
1m
1F
0c!
0u
1d!
1l!
0M
0_
0;
08
#1120000
b100 !
b100 "
b101 !
1&
b110 "
b1110 "
0#
1}
1#!
1&!
12!
1)!
1q
0l
1w
0m
0F
1"!
1>!
1<!
1r
1'!
1y
1k
1j
1i
1E
1D
1C
1=!
1h!
1;!
1e
1T
1d
1?
1-
1>
#1140000
1#
1l
1m
1F
0&"
1%"
1u
0!"
0#"
0z!
0{!
0|!
0}!
0~!
1w!
1z
1+!
0"!
1j!
1%!
1i!
0k!
13!
0\
0^
0W
0X
0Y
0Z
0[
1P
1f
05
07
00
01
02
03
04
1(
1@
1n!
0'!
0y
1q!
10!
0j!
14!
1a
0k
0j
0i
1h
1:
0E
0D
0C
1B
0;!
0h!
1g!
0@!
01!
1V!
0d
0T
1S
0>
0-
1,
1E!
0A!
08!
0J!
0F!
0C!
1O!
0K!
0H!
0T!
0P!
0M!
1U!
0R!
15!
0V!
06!
0Z!
1^!
#1160000
b1 !
b1010 "
b0 !
0&
b1000 "
b0 "
0#
0}
0#!
0&!
02!
0)!
0q
0l
0w
0m
0F
#1180000
1#
1l
1m
1F
1{
1!"
0z
1x
1j!
0<!
03!
0+!
1\
0f
15
0@
0n!
1m!
0q!
0g!
1f!
04!
00!
1]!
0a
1`
0h
0S
1R
0:
19
0B
0,
1+
1b!
0=!
05!
1V!
1@!
11!
17!
0^!
0>!
1b
0e
1<
0?
16!
1Z!
0E!
1A!
0B!
07!
1^!
1J!
1F!
1G!
1B!
18!
0O!
1K!
0L!
0G!
1C!
1T!
1P!
1Q!
1L!
1H!
0U!
0Q!
1M!
0V!
1R!
#1200000
0#
0l
0m
0F
#1220000
1#
1l
1m
1F
1c!
0{
0s!
1r!
0d!
0l!
0x
0V
1U
0/
1.
0m!
0r
1M
1_
0`
1;
18
09
0b!
0b
0<
0f!
0R
0+
#1240000
0#
0l
0m
0F
#1260000
1#
1l
1m
1F
0c!
0u
1d!
1l!
0M
0_
0;
08
#1280000
b1 "
b10 !
b110 !
1&
b1001 "
0#
1,!
1)!
1~
1&!
1q
0l
1w
0m
0F
1!!
1>!
1<!
0$!
1r
1'!
1y
1k
1j
1i
1E
1D
1C
1=!
1h!
1;!
1e
1T
1d
1?
1-
1>
#1300000
1#
1l
1m
1F
0'"
1&"
0x!
1y!
1u
0!"
0w!
1z
1-!
0[!
1W!
1"!
0!!
0j!
0%!
1+!
0\
0P
1f
05
0(
1@
1n!
0'!
0y
1q!
14!
1a
0k
0j
0i
1h
1:
0E
0D
0C
1B
0;!
0h!
1g!
1V!
0d
0T
1S
0>
0-
1,
#1320000
b1000 "
b100 !
b0 !
0&
b0 "
0#
0,!
0)!
0~
0&!
0q
0l
0w
0m
0F
#1340000
1#
1l
1m
1F
1{
1!"
1""
1#"
1z!
1{!
1|!
1}!
1~!
0z
1x
0i!
19!
1k!
0<!
0-!
0+!
1\
1]
1^
1W
1X
1Y
1Z
1[
0f
15
16
17
10
11
12
13
14
0@
0n!
1m!
0q!
0g!
1f!
1_!
0Y!
0]!
0a
1`
0h
0S
1R
0:
19
0B
0,
1+
1b!
0=!
1:!
1`!
0Z!
0^!
1b
0e
1O
1<
0?
1'
1h!
1g!
0f!
0b!
1=!
1;!
1T
1S
0R
0b
1e
1d
1-
1,
0+
0<
1?
1>
#1360000
0#
0l
0m
0F
#1380000
1#
1l
1m
1F
1a!
0{
0!"
0""
0#"
0z!
0{!
0|!
0}!
0~!
0x
1j!
0_!
1i!
09!
0k!
0\
0]
0^
0W
0X
0Y
0Z
0[
05
06
07
00
01
02
03
04
1n!
1b!
0:!
0`!
0j!
1a
1b
0O
1:
1<
0'
0=!
0;!
0h!
0g!
1f!
0>!
0e
0d
0T
0S
1R
0?
0>
0-
0,
1+
#1400000
0#
0l
0m
0F
#1420000
1#
1l
1m
1F
1c!
0a!
0r!
0d!
0l!
0U
0.
0n!
0m!
0b!
0r
1M
1_
0a
0`
0b
1;
18
0:
09
0<
0f!
0R
0+
#1440000
0#
0l
0m
0F
#1460000
1#
1l
1m
1F
0c!
0u
1d!
1l!
0M
0_
0;
08
#1480000
b1000 !
b100 "
b1010 !
1&
b1100 "
0#
1#!
1&!
1,!
1.!
1q
0l
1w
0m
0F
1$!
1>!
1<!
0"!
1r
1'!
1y
1k
1j
1i
1E
1D
1C
1=!
1h!
1;!
1e
1T
1d
1?
1-
1>
#1500000
1#
1l
1m
1F
1$"
0%"
0y!
1u
1w!
1z
1/!
0W!
0$!
1%!
1-!
1P
1f
1(
1@
1n!
0'!
0y
1q!
0T!
0P!
1O!
0K!
0J!
0F!
1E!
0A!
0@!
01!
04!
1]!
1Y!
1a
0k
0j
0i
1h
1:
0E
0D
0C
1B
0;!
0h!
1g!
1U!
0R!
1P!
0M!
1K!
0H!
1F!
0C!
1A!
08!
0V!
1^!
1Z!
0d
0T
1S
0>
0-
1,
1V!
1R!
1M!
1H!
1C!
#1520000
b10 !
b1000 "
b0 !
0&
b0 "
0#
0#!
0&!
0,!
0.!
0q
0l
0w
0m
0F
#1540000
1#
1l
1m
1F
1{
1!"
1""
1#"
1z!
1{!
1|!
1}!
0z
1x
1j!
0i!
1k!
0<!
0/!
0-!
1\
1]
1^
1W
1X
1Y
1Z
0f
15
16
17
10
11
12
13
0@
0n!
1m!
0q!
0g!
1f!
0P!
0K!
0F!
0A!
1@!
11!
0Y!
0a
1`
0h
0S
1R
0:
19
0B
0,
1+
1b!
0=!
0R!
0M!
0H!
0C!
0E!
1A!
18!
0Z!
0>!
1b
0e
1<
0?
1J!
1F!
1C!
0O!
1K!
1H!
1T!
1P!
1M!
0U!
1R!
0V!
#1560000
0#
0l
0m
0F
#1580000
1#
1l
1m
1F
1c!
0{
1s!
1r!
0d!
0l!
0x
1V
1U
1/
1.
0m!
0r
1M
1_
0`
1;
18
09
0b!
0b
0<
0f!
0R
0+
#1600000
0#
0l
0m
0F
#1620000
1#
1l
1m
1F
0c!
0u
1d!
1l!
0M
0_
0;
08
#1640000
1&
0#
1q
0l
1w
0m
0F
1>!
1<!
1r
1'!
1y
1k
1j
1i
1E
1D
1C
1=!
1h!
1;!
1e
1T
1d
1?
1-
1>
#1660000
1#
1l
1m
1F
0$"
0&"
1u
0!"
0""
0#"
0z!
0{!
0|!
0}!
0v!
0w!
1z
0%!
1i!
0S!
0N!
0I!
0k!
0D!
0?!
0\
0]
0^
0W
0X
0Y
0Z
0Q
0P
1f
05
06
07
00
01
02
03
0)
0(
1@
1n!
0'!
0y
1q!
0]!
0j!
0P!
0K!
0F!
0A!
01!
1a
0k
0j
0i
1h
1:
0E
0D
0C
1B
0;!
0h!
1g!
0^!
0R!
0M!
0H!
0C!
08!
0d
0T
1S
0>
0-
1,
#1680000
0&
0#
0q
0l
0w
0m
0F
#1700000
1#
1l
1m
1F
1{
0z
1x
0<!
0f
0@
0n!
1m!
0q!
0g!
1f!
0a
1`
0h
0S
1R
0:
19
0B
0,
1+
1b!
0=!
0>!
1b
0e
1<
0?
#1720000
0#
0l
0m
0F
#1740000
1#
1l
1m
1F
1c!
0{
0s!
0r!
0d!
0l!
0x
0V
0U
0/
0.
0m!
0r
1M
1_
0`
1;
18
09
0b!
0b
0<
0f!
0R
0+
#1760000
0#
0l
0m
0F
#1780000
b10 $
1#
1n
1l
1m
1F
1*!
0(!
0c!
0u
1d!
1l!
0M
0_
0;
08
