Fourth/simulation/qsim/Fourth.msim.vcd
$comment
	File created using the following command:
		vcd file Fourth.msim.vcd -direction
$end
$date
	Thu Nov 14 09:39:18 2024
$end
$version
	ModelSim Version 10.1d
$end
$timescale
	1ps
$end
$scope module alu_vhdl_vlg_vec_tst $end
$var reg 4 ! a [3:0] $end
$var reg 4 " b [3:0] $end
$var reg 1 # clk $end
$var reg 1 $ set $end
$var reg 1 % sno $end
$var wire 1 & f [3] $end
$var wire 1 ' f [2] $end
$var wire 1 ( f [1] $end
$var wire 1 ) incr_i $end
$var wire 1 * next_state_out [1] $end
$var wire 1 + next_state_out [0] $end
$var wire 1 , priznak [1] $end
$var wire 1 - priznak [0] $end
$var wire 1 . rr [7] $end
$var wire 1 / rr [6] $end
$var wire 1 0 rr [5] $end
$var wire 1 1 rr [4] $end
$var wire 1 2 rr [3] $end
$var wire 1 3 rr [2] $end
$var wire 1 4 rr [1] $end
$var wire 1 5 rr [0] $end
$var wire 1 6 s_out [1] $end
$var wire 1 7 s_out [0] $end
$var wire 1 8 sko $end
$var wire 1 9 y [10] $end
$var wire 1 : y [9] $end
$var wire 1 ; y [8] $end
$var wire 1 < y [7] $end
$var wire 1 = y [6] $end
$var wire 1 > y [5] $end
$var wire 1 ? y [4] $end
$var wire 1 @ y [3] $end
$var wire 1 A y [2] $end
$var wire 1 B y [1] $end
$var wire 1 C sampler $end
$scope module i1 $end
$var wire 1 D gnd $end
$var wire 1 E vcc $end
$var wire 1 F unknown $end
$var tri1 1 G devclrn $end
$var tri1 1 H devpor $end
$var tri1 1 I devoe $end
$var wire 1 J sko~output_o $end
$var wire 1 K incr_i~output_o $end
$var wire 1 L f[3]~output_o $end
$var wire 1 M f[2]~output_o $end
$var wire 1 N f[1]~output_o $end
$var wire 1 O next_state_out[1]~output_o $end
$var wire 1 P next_state_out[0]~output_o $end
$var wire 1 Q priznak[1]~output_o $end
$var wire 1 R priznak[0]~output_o $end
$var wire 1 S rr[7]~output_o $end
$var wire 1 T rr[6]~output_o $end
$var wire 1 U rr[5]~output_o $end
$var wire 1 V rr[4]~output_o $end
$var wire 1 W rr[3]~output_o $end
$var wire 1 X rr[2]~output_o $end
$var wire 1 Y rr[1]~output_o $end
$var wire 1 Z rr[0]~output_o $end
$var wire 1 [ s_out[1]~output_o $end
$var wire 1 \ s_out[0]~output_o $end
$var wire 1 ] y[10]~output_o $end
$var wire 1 ^ y[9]~output_o $end
$var wire 1 _ y[8]~output_o $end
$var wire 1 ` y[7]~output_o $end
$var wire 1 a y[6]~output_o $end
$var wire 1 b y[5]~output_o $end
$var wire 1 c y[4]~output_o $end
$var wire 1 d y[3]~output_o $end
$var wire 1 e y[2]~output_o $end
$var wire 1 f y[1]~output_o $end
$var wire 1 g clk~input_o $end
$var wire 1 h clk~inputclkctrl_outclk $end
$var wire 1 i sno~input_o $end
$var wire 1 j inst|Selector0~0_combout $end
$var wire 1 k inst|state.s0~0_combout $end
$var wire 1 l set~input_o $end
$var wire 1 m set~inputclkctrl_outclk $end
$var wire 1 n inst|state.s0~q $end
$var wire 1 o inst|incr_i~0_combout $end
$var wire 1 p inst|Selector1~1_combout $end
$var wire 1 q inst|state.s1~q $end
$var wire 1 r inst|state.s2~q $end
$var wire 1 s inst|i[1]~0_combout $end
$var wire 1 t sno~inputclkctrl_outclk $end
$var wire 1 u inst|i[0]~1_combout $end
$var wire 1 v inst|sko~0_combout $end
$var wire 1 w b[3]~input_o $end
$var wire 1 x inst|Selector1~0_combout $end
$var wire 1 y inst|Selector2~0_combout $end
$var wire 1 z inst2|q[4]~0_combout $end
$var wire 1 { b[2]~input_o $end
$var wire 1 | b[1]~input_o $end
$var wire 1 } b[0]~input_o $end
$var wire 1 ~ inst2|RB~2_combout $end
$var wire 1 !! inst2|RB~1_combout $end
$var wire 1 "! inst2|RB~0_combout $end
$var wire 1 #! a[3]~input_o $end
$var wire 1 $! inst2|Mux0~0_combout $end
$var wire 1 %! a[2]~input_o $end
$var wire 1 &! inst2|Mux5~0_combout $end
$var wire 1 '! a[1]~input_o $end
$var wire 1 (! inst2|Mux6~0_combout $end
$var wire 1 )! a[0]~input_o $end
$var wire 1 *! inst2|Mux7~0_combout $end
$var wire 1 +! inst2|Add0~0_combout $end
$var wire 1 ,! inst2|Add0~9 $end
$var wire 1 -! inst2|Add0~10_combout $end
$var wire 1 .! inst2|rr[0]~9 $end
$var wire 1 /! inst2|rr[1]~11 $end
$var wire 1 0! inst2|rr[2]~13 $end
$var wire 1 1! inst2|rr[3]~15 $end
$var wire 1 2! inst2|rr[4]~17 $end
$var wire 1 3! inst2|rr[5]~18_combout $end
$var wire 1 4! inst2|q[5]~7_combout $end
$var wire 1 5! inst2|Add0~11 $end
$var wire 1 6! inst2|Add0~12_combout $end
$var wire 1 7! inst2|rr[5]~19 $end
$var wire 1 8! inst2|rr[6]~20_combout $end
$var wire 1 9! inst2|q[6]~6_combout $end
$var wire 1 :! inst2|Add0~13 $end
$var wire 1 ;! inst2|Add0~14_combout $end
$var wire 1 <! inst2|rr[6]~21 $end
$var wire 1 =! inst2|rr[7]~22_combout $end
$var wire 1 >! inst2|q[7]~5_combout $end
$var wire 1 ?! inst2|Add0~15 $end
$var wire 1 @! inst2|Add0~16_combout $end
$var wire 1 A! inst2|rr[0]~8_combout $end
$var wire 1 B! inst2|q[0]~4_combout $end
$var wire 1 C! inst2|Add0~1 $end
$var wire 1 D! inst2|Add0~2_combout $end
$var wire 1 E! inst2|rr[1]~10_combout $end
$var wire 1 F! inst2|q[1]~3_combout $end
$var wire 1 G! inst2|Add0~3 $end
$var wire 1 H! inst2|Add0~4_combout $end
$var wire 1 I! inst2|rr[2]~12_combout $end
$var wire 1 J! inst2|q[2]~2_combout $end
$var wire 1 K! inst2|Add0~5 $end
$var wire 1 L! inst2|Add0~6_combout $end
$var wire 1 M! inst2|rr[3]~14_combout $end
$var wire 1 N! inst2|q[3]~1_combout $end
$var wire 1 O! inst2|Add0~7 $end
$var wire 1 P! inst2|Add0~8_combout $end
$var wire 1 Q! inst2|rr[4]~16_combout $end
$var wire 1 R! inst2|Equal1~0_combout $end
$var wire 1 S! inst2|Equal1~1_combout $end
$var wire 1 T! inst|next_state_out[0]~0_combout $end
$var wire 1 U! inst|s_out[1]~0_combout $end
$var wire 1 V! inst|y[5]~0_combout $end
$var wire 1 W! inst|y[4]~1_combout $end
$var wire 1 X! inst2|rr [7] $end
$var wire 1 Y! inst2|rr [6] $end
$var wire 1 Z! inst2|rr [5] $end
$var wire 1 [! inst2|rr [4] $end
$var wire 1 \! inst2|rr [3] $end
$var wire 1 ]! inst2|rr [2] $end
$var wire 1 ^! inst2|rr [1] $end
$var wire 1 _! inst2|rr [0] $end
$var wire 1 `! inst|i [1] $end
$var wire 1 a! inst|i [0] $end
$var wire 1 b! inst2|RB [3] $end
$var wire 1 c! inst2|RB [2] $end
$var wire 1 d! inst2|RB [1] $end
$var wire 1 e! inst2|RB [0] $end
$var wire 1 f! inst2|RA [3] $end
$var wire 1 g! inst2|RA [2] $end
$var wire 1 h! inst2|RA [1] $end
$var wire 1 i! inst2|RA [0] $end
$upscope $end
$upscope $end
$enddefinitions $end
#0
$dumpvars
b0 !
b0 "
0#
1$
0%
0(
0'
0&
0)
0+
0*
0-
0,
05
04
03
02
01
00
0/
0.
07
06
08
0B
0A
0@
0?
0>
0=
0<
0;
0:
09
xC
0D
1E
xF
1G
1H
1I
0J
0K
0L
0M
0N
0O
0P
0Q
0R
0S
0T
0U
0V
0W
0X
0Y
0Z
0[
0\
0]
0^
0_
0`
0a
0b
0c
0d
0e
0f
0g
0h
0i
1j
0k
1l
1m
0n
0o
0p
0q
0r
0s
0t
0u
0v
0w
0x
0y
0z
0{
0|
0}
0~
0!!
0"!
0#!
0$!
0%!
0&!
0'!
0(!
0)!
0*!
0+!
0,!
0-!
0.!
1/!
00!
11!
02!
03!
04!
15!
06!
17!
08!
09!
0:!
0;!
0<!
0=!
0>!
1?!
0@!
0A!
0B!
0C!
0D!
0E!
0F!
1G!
0H!
0I!
0J!
0K!
0L!
0M!
0N!
1O!
0P!
0Q!
0R!
0S!
0T!
0U!
0V!
0W!
0_!
0^!
0]!
0\!
0[!
0Z!
0Y!
0X!
0a!
0`!
0e!
0d!
0c!
0b!
0i!
0h!
0g!
0f!
$end
#5000
1#
1g
1h
0C
#10000
b100 !
b110 !
b111 !
b100 "
b101 "
1%
0$
0#
1}
1{
1)!
1'!
1%!
1i
0l
0g
1t
0m
0h
1C
1~
1"!
0j
1T!
1y
1x
1p
1k
1`
1P
1^
1f
1e
1_
1d
1<
1+
1:
1B
1A
1;
1@
#15000
1#
1g
1h
0C
1i!
1h!
1g!
1e!
1n
1c!
1q
1*!
1(!
1&!
1!!
0"!
0~
1M
1a
1\
1O
1'
1=
17
1*
0T!
0x
0p
1W!
1+!
1D!
1H!
0P
0f
0e
0_
0d
1c
0+
0B
0A
0;
0@
1?
1A!
1E!
1I!
#20000
b11 !
b1 !
b0 !
b1 "
b0 "
0%
0#
0}
0{
0)!
0'!
0%!
0i
0g
0t
0h
1C
#25000
1#
1g
1h
0C
1r
1]!
1^!
1_!
0q
1u
1s
1J!
1F!
1B!
0*!
0(!
0&!
1X
1Y
1Z
0a
0\
0O
13
14
15
0=
07
0*
1o
0W!
1U!
0y
0F!
1K
0c
1[
0^
1)
0?
16
0:
1T!
1p
0D!
1P
1d
1+
1@
0E!
#30000
0#
0g
0h
1C
#35000
1#
1g
1h
0C
1d!
0e!
1a!
1`!
0r
1\!
0_!
0c!
1q
1F!
1"!
0B!
0!!
0J!
1W
0Z
0M
1a
1\
1O
12
05
0'
1=
17
1*
0o
0U!
1y
1D!
0+!
0H!
1N!
1J!
0K
0[
1^
0)
06
1:
0T!
0p
1E!
0A!
0I!
1L!
1H!
0P
0d
0+
0@
1M!
1I!
#40000
0#
0g
0h
1C
#45000
1#
1g
1h
0C
1r
0q
0u
0a
0\
0O
0=
07
0*
1o
1U!
0y
0N!
0J!
1K
1[
0^
1)
16
0:
1T!
1p
0L!
0H!
1P
1d
1+
1@
0M!
0I!
#50000
0#
0g
0h
1C
#55000
1#
1g
1h
0C
0d!
0a!
0r
1[!
0^!
1c!
1q
0F!
0"!
1J!
1*!
1(!
1&!
1V
0Y
1M
1a
1\
1O
11
04
1'
1=
17
1*
0o
1W!
0U!
1y
1K!
1+!
1N!
1z
0K
1c
0[
1^
0)
1?
06
1:
0T!
0p
0O!
1A!
1P!
0P
0d
0+
0@
1,!
0P!
1Q!
1-!
0Q!
13!
#60000
0#
0g
0h
1C
#65000
1#
1g
1h
0C
1r
0[!
0\!
0]!
1^!
1_!
1Z!
0q
0z
0N!
0J!
1F!
1B!
14!
0*!
0(!
0&!
0V
0W
0X
1Y
1Z
1U
0a
0\
0O
01
02
03
14
15
10
0=
07
0*
1v
0W!
1U!
0y
0,!
1P!
1O!
1L!
0K!
05!
0-!
1j
1J!
0F!
0B!
04!
1J
0c
1[
0^
18
0?
16
0:
15!
1Q!
0P!
1M!
0L!
16!
03!
0k
1H!
0D!
0+!
0`
0<
06!
0Q!
0M!
18!
1I!
0E!
0A!
08!
#70000
0#
0g
0h
1C
#75000
1#
1g
1h
0C
0r
0n
0v
0U!
0J
0[
08
06
#80000
b1000 !
b1000 "
b1010 "
1%
0#
1|
1w
1#!
1i
0g
1t
0h
1C
1!!
0j
1T!
1y
1x
1p
1k
0J!
1F!
1B!
14!
1`
1P
1^
1f
1e
1_
1d
1<
1+
1:
1B
1A
1;
1@
0H!
1D!
1+!
1-!
0I!
1E!
1A!
13!
0`!
0s
#85000
1#
1g
1h
0C
0i!
0h!
0g!
1f!
1d!
1n
0^!
0_!
0Z!
0c!
1b!
1q
1*!
1(!
1&!
0F!
1"!
0!!
0B!
04!
0Y
0Z
0U
0M
1N
1a
1\
1O
04
05
00
0'
1(
1=
17
1*
0T!
0x
0p
1V!
1H!
0-!
0P
0f
0e
0_
0d
1b
0+
0B
0A
0;
0@
1>
1I!
03!
#90000
b0 !
b10 "
b0 "
0%
0#
0|
0w
0#!
0i
0g
0t
0h
1C
#95000
1#
1g
1h
0C
1r
1]!
1^!
1_!
0q
1u
1s
1J!
1F!
1B!
0*!
0(!
0&!
1X
1Y
1Z
0a
0\
0O
13
14
15
0=
07
0*
1o
0V!
1U!
0y
1N!
0J!
0B!
1>!
19!
14!
1z
1K
0b
1[
0^
1)
0>
16
0:
1T!
1p
1L!
0H!
0+!
1;!
16!
1-!
1P!
1P
1d
1+
1@
1M!
0I!
0A!
1=!
18!
13!
1Q!
#100000
0#
0g
0h
1C
#105000
1#
1g
1h
0C
0d!
1a!
1`!
0r
1\!
0_!
1c!
1q
0F!
0"!
1J!
1W
0Z
1M
1a
1\
1O
12
05
1'
1=
17
1*
0o
0U!
1y
0D!
1H!
1F!
0>!
09!
04!
0z
0K
0[
1^
0)
06
1:
0T!
0p
0E!
1I!
1D!
0;!
06!
0-!
0P!
0P
0d
0+
0@
1E!
0=!
08!
03!
0Q!
#110000
0#
0g
0h
1C
#115000
1#
1g
1h
0C
1r
0q
0u
0a
0\
0O
0=
07
0*
1o
1U!
0y
0F!
1>!
19!
14!
1z
1K
1[
0^
1)
16
0:
1T!
1p
0D!
1;!
16!
1-!
1P!
1P
1d
1+
1@
0E!
1=!
18!
13!
1Q!
#120000
0#
0g
0h
1C
#125000
1#
1g
1h
0C
0a!
0r
1[!
0^!
0c!
1q
0J!
1*!
1(!
1&!
1V
0Y
0M
1a
1\
1O
11
04
0'
1=
17
1*
0o
1V!
0U!
1y
1+!
1D!
1J!
0>!
09!
04!
0K
1b
0[
1^
0)
1>
06
1:
0T!
0p
1A!
1E!
1K!
0H!
0;!
06!
0-!
0P
0d
0+
0@
0O!
0L!
0I!
0=!
08!
03!
1,!
0P!
0M!
1-!
0Q!
13!
#130000
0#
0g
0h
1C
#135000
1#
1g
1h
0C
1r
0[!
0\!
0]!
1^!
1_!
1Z!
0q
0z
0N!
0J!
1F!
1B!
14!
0*!
0(!
0&!
0V
0W
0X
1Y
1Z
1U
0a
0\
0O
01
02
03
14
15
10
0=
07
0*
1v
0V!
1U!
0y
0,!
1P!
1O!
1L!
0K!
05!
0-!
1j
1N!
0F!
0B!
1>!
19!
1z
1J
0b
1[
0^
18
0>
16
0:
15!
1-!
1Q!
1M!
1:!
03!
0k
0D!
0+!
1;!
0`
0<
0:!
16!
13!
0?!
0;!
0E!
0A!
1=!
1?!
1;!
18!
1@!
0=!
0@!
1=!
1A!
0A!
#140000
0#
0g
0h
1C
#145000
1#
1g
1h
0C
0r
0n
0v
0U!
0J
0[
08
06
#150000
b1 !
b100 "
b1001 !
b1100 "
1%
0#
1{
1w
1)!
1#!
1i
0g
1t
0h
1C
1"!
0j
1T!
1y
1x
1p
1k
0N!
1F!
1B!
0>!
09!
0z
1`
1P
1^
1f
1e
1_
1d
1<
1+
1:
1B
1A
1;
1@
0L!
1D!
1+!
0;!
06!
0P!
0M!
1E!
1A!
0=!
08!
0Q!
0`!
0s
#155000
1#
1g
1h
0C
1i!
1n
0^!
0_!
0Z!
1c!
1q
0"!
0F!
0B!
04!
0Y
0Z
0U
1M
1a
1\
1O
04
05
00
1'
1=
17
1*
0T!
0x
0p
0D!
0+!
0-!
0P
0f
0e
0_
0d
0+
0B
0A
0;
0@
0E!
0A!
03!
#160000
b1000 !
b1000 "
b0 !
b0 "
0%
0#
0{
0w
0)!
0#!
0i
0g
0t
0h
1C
#165000
1#
1g
1h
0C
1r
0q
1u
1s
0a
0\
0O
0=
07
0*
1o
1U!
0y
1N!
1J!
1>!
19!
14!
1z
1K
1[
0^
1)
16
0:
1T!
1p
1L!
1H!
1;!
16!
1-!
1P!
1P
1d
1+
1@
1M!
1I!
1=!
18!
13!
1Q!
#170000
0#
0g
0h
1C
#175000
1#
1g
1h
0C
1a!
1`!
0r
0c!
1q
0J!
1(!
1&!
0M
1a
1\
1O
0'
1=
17
1*
0o
1V!
0U!
1y
1D!
0N!
0>!
09!
04!
0z
0K
1b
0[
1^
0)
1>
06
1:
0T!
0p
1E!
0L!
0;!
06!
0-!
0P!
0P
0d
0+
0@
0M!
0=!
08!
03!
0Q!
#180000
0#
0g
0h
1C
#185000
1#
1g
1h
0C
1r
1]!
1^!
0q
0u
1J!
1F!
0(!
0&!
1X
1Y
0a
0\
0O
13
14
0=
07
0*
1o
0V!
1U!
0y
1N!
0J!
0F!
1>!
19!
14!
1z
1K
0b
1[
0^
1)
0>
16
0:
1T!
1p
1L!
0H!
0D!
1;!
16!
1-!
1P!
1P
1d
1+
1@
1M!
0I!
0E!
1=!
18!
13!
1Q!
#190000
0#
0g
0h
1C
#195000
1#
1g
1h
0C
0a!
0r
1\!
0^!
1q
1(!
1&!
1W
0Y
1a
1\
1O
12
04
1=
17
1*
0o
1V!
0U!
1y
1D!
1H!
1J!
0>!
09!
04!
0z
0K
1b
0[
1^
0)
1>
06
1:
0T!
0p
1E!
1I!
1K!
0H!
0;!
06!
0-!
0P!
0P
0d
0+
0@
0O!
0L!
0I!
0=!
08!
03!
0Q!
1P!
0M!
1Q!
#200000
0#
0g
0h
1C
#205000
1#
1g
1h
0C
1r
1[!
0\!
0]!
1^!
0q
1z
0N!
0J!
1F!
0(!
0&!
1V
0W
0X
1Y
0a
0\
0O
11
02
03
14
0=
07
0*
1v
0V!
1U!
0y
1,!
0P!
1O!
1L!
0K!
1j
1N!
0F!
1>!
19!
14!
1J
0b
1[
0^
18
0>
16
0:
05!
0Q!
0,!
1P!
1M!
0k
0D!
1;!
16!
0`
0<
1:!
06!
15!
1-!
1Q!
0E!
1=!
18!
0?!
0;!
08!
0:!
16!
13!
1@!
0=!
1?!
1;!
18!
1A!
0@!
1=!
0A!
#210000
0#
0g
0h
1C
#215000
1#
1g
1h
0C
0r
0n
0v
0U!
0J
0[
08
06
#220000
b100 !
b110 !
b100 "
b1100 "
1%
0#
1{
1w
1'!
1%!
1i
0g
1t
0h
1C
1"!
0j
1T!
1y
1x
1p
1k
0N!
1F!
0>!
09!
04!
1`
1P
1^
1f
1e
1_
1d
1<
1+
1:
1B
1A
1;
1@
0L!
1D!
0;!
06!
0-!
0M!
1E!
0=!
08!
03!
0`!
0s
#225000
1#
1g
1h
0C
0i!
1h!
1g!
0f!
1n
0[!
0^!
1c!
1q
0"!
0z
0F!
0V
0Y
1M
1a
1\
1O
01
04
1'
1=
17
1*
0T!
0x
0p
0P!
0D!
0P
0f
0e
0_
0d
0+
0B
0A
0;
0@
0Q!
0E!
#230000
b10 !
b0 !
b1000 "
b0 "
0%
0#
0{
0w
0'!
0%!
0i
0g
0t
0h
1C
#235000
1#
1g
1h
0C
1r
0q
1u
1s
0a
0\
0O
0=
07
0*
1o
1U!
0y
1N!
1J!
1>!
19!
14!
1z
1K
1[
0^
1)
16
0:
1T!
1p
1L!
1H!
1;!
16!
1-!
1P!
1P
1d
1+
1@
1M!
1I!
1=!
18!
13!
1Q!
#240000
0#
0g
0h
1C
#245000
1#
1g
1h
0C
1a!
1`!
0r
0c!
1q
0J!
1*!
1$!
0M
1a
1\
1O
0'
1=
17
1*
0o
1V!
0U!
1y
0H!
1+!
0O!
0L!
0?!
0;!
1:!
06!
05!
0-!
1,!
0P!
0N!
0>!
09!
04!
0z
0K
1b
0[
1^
0)
1>
06
1:
0T!
0p
0I!
1A!
0M!
1@!
0=!
08!
03!
0Q!
1O!
1L!
0P
0d
0+
0@
1.!
0A!
0,!
1P!
1M!
1E!
15!
1-!
1Q!
0:!
16!
13!
1?!
1;!
18!
0@!
1=!
0.!
1A!
0E!
#250000
0#
0g
0h
1C
#255000
1#
1g
1h
0C
1r
1[!
1\!
1_!
1X!
1Y!
1Z!
0q
0u
1z
1N!
1B!
1>!
19!
14!
0*!
0$!
1V
1W
1Z
1S
1T
1U
0a
0\
0O
11
12
15
1.
1/
10
0=
07
0*
1o
0V!
1U!
0y
0B!
1K
0b
1[
0^
1)
0>
16
0:
1T!
1p
0+!
1P
1d
1+
1@
0A!
#260000
0#
0g
0h
1C
#265000
1#
1g
1h
0C
0a!
0r
0\!
1^!
1q
1*!
1$!
0W
1Y
1a
1\
1O
02
14
1=
17
1*
0o
1V!
0U!
1y
1+!
0O!
0L!
0?!
0;!
1:!
06!
05!
0-!
1,!
0P!
0N!
1F!
1B!
0K
1b
0[
1^
0)
1>
06
1:
0T!
0p
1A!
1P!
0M!
1@!
0=!
1;!
08!
16!
03!
1-!
0Q!
1O!
1L!
1D!
1C!
0+!
0P
0d
0+
0@
1Q!
1=!
18!
13!
0P!
1M!
1E!
0G!
0D!
0Q!
1H!
0E!
1I!
#270000
0#
0g
0h
1C
#275000
1#
1g
1h
0C
1r
0[!
1\!
1]!
0^!
0q
0z
1N!
1J!
0F!
0*!
0$!
0V
1W
1X
0Y
0a
0\
0O
01
12
13
04
0=
07
0*
1v
0V!
1U!
0y
0,!
1K!
0H!
1G!
1D!
0C!
1+!
0;!
06!
0-!
1j
0J!
0B!
1z
1J
0b
1[
0^
18
0>
16
0:
15!
1-!
0O!
0L!
0I!
0K!
1E!
0D!
1.!
0A!
0=!
08!
03!
0k
0+!
1P!
0`
0<
0:!
16!
13!
1,!
0P!
0M!
1O!
1L!
0.!
1A!
1Q!
1?!
1;!
18!
05!
0-!
0Q!
0,!
1P!
1M!
0E!
0@!
1=!
1:!
06!
03!
15!
1-!
1Q!
0A!
0?!
0;!
08!
0:!
16!
13!
1@!
0=!
1?!
1;!
18!
1A!
0@!
1=!
0A!
#280000
0#
0g
0h
1C
#285000
1#
1g
1h
0C
0r
0n
0v
0U!
0J
0[
08
06
#290000
b1 "
b11 "
b1 !
b1001 !
1%
0#
1)!
1#!
1}
1|
1i
0g
1t
0h
1C
1~
1!!
0j
1T!
1y
1x
1p
1k
1J!
1B!
0z
1`
1P
1^
1f
1e
1_
1d
1<
1+
1:
1B
1A
1;
1@
1H!
1+!
0P!
1I!
1A!
0Q!
0`!
0s
#295000
1#
1g
1h
0C
1i!
0h!
0g!
1f!
1d!
1e!
1n
0\!
0]!
0_!
0X!
0Y!
0Z!
0b!
1q
1"!
0B!
0~
0N!
0J!
0>!
09!
04!
0W
0X
0Z
0S
0T
0U
0N
1a
1\
1O
02
03
05
0.
0/
00
0(
1=
17
1*
0T!
0x
0p
0+!
0L!
0H!
0;!
06!
0-!
0P
0f
0e
0_
0d
0+
0B
0A
0;
0@
0A!
0M!
0I!
0=!
08!
03!
#300000
b10 "
b0 "
b1000 !
b0 !
0%
0#
0)!
0#!
0}
0|
0i
0g
0t
0h
1C
#305000
1#
1g
1h
0C
1r
0q
1u
1s
0a
0\
0O
0=
07
0*
1o
1U!
0y
1F!
1B!
1K
1[
0^
1)
16
0:
1T!
1p
1D!
1+!
1P
1d
1+
1@
1E!
1A!
#310000
0#
0g
0h
1C
#315000
1#
1g
1h
0C
0e!
1a!
1`!
0r
1c!
1q
0B!
0!!
1J!
1*!
1$!
1M
1a
1\
1O
1'
1=
17
1*
0o
1W!
0U!
1y
1H!
1L!
1;!
16!
1-!
1P!
0J!
0F!
0K
1c
0[
1^
0)
1?
06
1:
0T!
0p
1I!
1M!
1=!
18!
13!
1Q!
0H!
0D!
0P
0d
0+
0@
0I!
0E!
#320000
0#
0g
0h
1C
#325000
1#
1g
1h
0C
1r
1[!
1\!
1_!
1X!
1Y!
1Z!
0q
0u
1z
1N!
1B!
1>!
19!
14!
0*!
0$!
1V
1W
1Z
1S
1T
1U
0a
0\
0O
11
12
15
1.
1/
10
0=
07
0*
1o
0W!
1U!
0y
0N!
1J!
1F!
0B!
0>!
09!
04!
0z
1K
0c
1[
0^
1)
0?
16
0:
1T!
1p
0L!
1H!
1D!
0+!
0;!
06!
0-!
0P!
1P
1d
1+
1@
0M!
1I!
1E!
0A!
0=!
08!
03!
0Q!
#330000
0#
0g
0h
1C
#335000
1#
1g
1h
0C
0d!
0a!
0r
0\!
1^!
1q
0F!
0"!
1*!
1$!
0W
1Y
1a
1\
1O
02
14
1=
17
1*
0o
1W!
0U!
1y
0D!
1+!
1L!
1;!
16!
1-!
1P!
0J!
1F!
1B!
1>!
19!
14!
1z
0K
1c
0[
1^
0)
1?
06
1:
0T!
0p
0E!
1A!
1M!
1=!
18!
13!
1Q!
0H!
1D!
1C!
0+!
0?!
0;!
1:!
06!
05!
0-!
1,!
0P!
0P
0d
0+
0@
0I!
1E!
0G!
0D!
0A!
1@!
0=!
1;!
08!
16!
03!
1-!
0Q!
1H!
0E!
1A!
1=!
18!
13!
1I!
#340000
0#
0g
0h
1C
#345000
1#
1g
1h
0C
1r
0[!
1\!
1]!
0^!
0q
0z
1N!
1J!
0F!
0*!
0$!
0V
1W
1X
0Y
0a
0\
0O
01
12
13
04
0=
07
0*
1v
0W!
1U!
0y
0,!
1K!
0H!
1G!
1D!
0C!
1+!
0;!
06!
0-!
1j
0N!
0B!
0>!
09!
04!
1J
0c
1[
0^
18
0?
16
0:
15!
0I!
0K!
1H!
1E!
0D!
1.!
0A!
0=!
08!
03!
0k
0+!
1?!
1;!
0:!
16!
0`
0<
06!
0L!
1I!
0.!
1A!
0@!
1=!
0;!
18!
08!
0M!
0E!
0A!
0=!
#350000
0#
0g
0h
1C
#355000
1#
1g
1h
0C
0r
0n
0v
0U!
0J
0[
08
06
#360000
0#
0g
0h
1C
#365000
1#
1g
1h
0C
#370000
0#
0g
0h
1C
#375000
1#
1g
1h
0C
#380000
0#
0g
0h
1C
#385000
1#
1g
1h
0C
#390000
0#
0g
0h
1C
#395000
1#
1g
1h
0C
#400000
0#
0g
0h
1C
#405000
1#
1g
1h
0C
#410000
0#
0g
0h
1C
#415000
1#
1g
1h
0C
#420000
0#
0g
0h
1C
#425000
1#
1g
1h
0C
#430000
0#
0g
0h
1C
#435000
1#
1g
1h
0C
#440000
0#
0g
0h
1C
#445000
1#
1g
1h
0C
#450000
0#
0g
0h
1C
#455000
1#
1g
1h
0C
#460000
0#
0g
0h
1C
#465000
1#
1g
1h
0C
#470000
0#
0g
0h
1C
#475000
1#
1g
1h
0C
#480000
0#
0g
0h
1C
#485000
1#
1g
1h
0C
#490000
0#
0g
0h
1C
#495000
1#
1g
1h
0C
#500000
0#
0g
0h
1C
#505000
1#
1g
1h
0C
#510000
0#
0g
0h
1C
#515000
1#
1g
1h
0C
#520000
0#
0g
0h
1C
#525000
1#
1g
1h
0C
#530000
0#
0g
0h
1C
#535000
1#
1g
1h
0C
#540000
0#
0g
0h
1C
#545000
1#
1g
1h
0C
#550000
0#
0g
0h
1C
#555000
1#
1g
1h
0C
#560000
0#
0g
0h
1C
#565000
1#
1g
1h
0C
#570000
0#
0g
0h
1C
#575000
1#
1g
1h
0C
#580000
0#
0g
0h
1C
#585000
1#
1g
1h
0C
#590000
0#
0g
0h
1C
#595000
1#
1g
1h
0C
#600000
0#
0g
0h
1C
#605000
1#
1g
1h
0C
#610000
0#
0g
0h
1C
#615000
1#
1g
1h
0C
#620000
0#
0g
0h
1C
#625000
1#
1g
1h
0C
#630000
0#
0g
0h
1C
#635000
1#
1g
1h
0C
#640000
0#
0g
0h
1C
#645000
1#
1g
1h
0C
#650000
0#
0g
0h
1C
#655000
1#
1g
1h
0C
#660000
0#
0g
0h
1C
#665000
1#
1g
1h
0C
#670000
0#
0g
0h
1C
#675000
1#
1g
1h
0C
#680000
0#
0g
0h
1C
#685000
1#
1g
1h
0C
#690000
0#
0g
0h
1C
#695000
1#
1g
1h
0C
#700000
0#
0g
0h
1C
#705000
1#
1g
1h
0C
#710000
0#
0g
0h
1C
#715000
1#
1g
1h
0C
#720000
0#
0g
0h
1C
#725000
1#
1g
1h
0C
#730000
0#
0g
0h
1C
#735000
1#
1g
1h
0C
#740000
0#
0g
0h
1C
#745000
1#
1g
1h
0C
#750000
0#
0g
0h
1C
#755000
1#
1g
1h
0C
#760000
0#
0g
0h
1C
#765000
1#
1g
1h
0C
#770000
0#
0g
0h
1C
#775000
1#
1g
1h
0C
#780000
0#
0g
0h
1C
#785000
1#
1g
1h
0C
#790000
0#
0g
0h
1C
#795000
1#
1g
1h
0C
#800000
0#
0g
0h
1C
#805000
1#
1g
1h
0C
#810000
0#
0g
0h
1C
#815000
1#
1g
1h
0C
#820000
0#
0g
0h
1C
#825000
1#
1g
1h
0C
#830000
0#
0g
0h
1C
#835000
1#
1g
1h
0C
#840000
0#
0g
0h
1C
#845000
1#
1g
1h
0C
#850000
0#
0g
0h
1C
#855000
1#
1g
1h
0C
#860000
0#
0g
0h
1C
#865000
1#
1g
1h
0C
#870000
0#
0g
0h
1C
#875000
1#
1g
1h
0C
#880000
0#
0g
0h
1C
#885000
1#
1g
1h
0C
#890000
0#
0g
0h
1C
#895000
1#
1g
1h
0C
#900000
0#
0g
0h
1C
#905000
1#
1g
1h
0C
#910000
0#
0g
0h
1C
#915000
1#
1g
1h
0C
#920000
0#
0g
0h
1C
#925000
1#
1g
1h
0C
#930000
0#
0g
0h
1C
#935000
1#
1g
1h
0C
#940000
0#
0g
0h
1C
#945000
1#
1g
1h
0C
#950000
0#
0g
0h
1C
#955000
1#
1g
1h
0C
#960000
0#
0g
0h
1C
#965000
1#
1g
1h
0C
#970000
0#
0g
0h
1C
#975000
1#
1g
1h
0C
#980000
0#
0g
0h
1C
#985000
1#
1g
1h
0C
#990000
0#
0g
0h
1C
#995000
1#
1g
1h
0C
